%!PS-Adobe-3.0 EPSF-3.0
%%Creator: MATLAB, The MathWorks, Inc. Version 8.2.0.701 (R2013b). Operating System: Microsoft Windows 7.
%%Title: C:\Users\zzhang\Desktop\matlab-ltl-hcost\visit_in_order_2.eps
%%CreationDate: 10/28/2015  17:59:12
%%DocumentNeededFonts: Helvetica
%%DocumentProcessColors: Cyan Magenta Yellow Black
%%LanguageLevel: 2
%%Pages: 1
%%BoundingBox:  -261    41   872   750
%%EndComments

%%BeginProlog
% MathWorks dictionary
/MathWorks 160 dict begin
% definition operators
/bdef {bind def} bind def
/ldef {load def} bind def
/xdef {exch def} bdef
/xstore {exch store} bdef
% operator abbreviations
/c  /clip ldef
/cc /concat ldef
/cp /closepath ldef
/gr /grestore ldef
/gs /gsave ldef
/mt /moveto ldef
/np /newpath ldef
/cm /currentmatrix ldef
/sm /setmatrix ldef
/rm /rmoveto ldef
/rl /rlineto ldef
/s {show newpath} bdef
/sc {setcmykcolor} bdef
/sr /setrgbcolor ldef
/sg /setgray ldef
/w /setlinewidth ldef
/j /setlinejoin ldef
/cap /setlinecap ldef
/rc {rectclip} bdef
/rf {rectfill} bdef
% page state control
/pgsv () def
/bpage {/pgsv save def} bdef
/epage {pgsv restore} bdef
/bplot /gsave ldef
/eplot {stroke grestore} bdef
% orientation switch
/portraitMode 0 def /landscapeMode 1 def /rotateMode 2 def
% coordinate system mappings
/dpi2point 0 def
% font control
/FontSize 0 def
/FMS {/FontSize xstore findfont [FontSize 0 0 FontSize neg 0 0]
  makefont setfont} bdef
/ISOLatin1Encoding where {pop /WindowsLatin1Encoding 256 array bdef
ISOLatin1Encoding WindowsLatin1Encoding copy pop
/.notdef/.notdef/quotesinglbase/florin/quotedblbase/ellipsis/dagger
/daggerdbl/circumflex/perthousand/Scaron/guilsinglleft/OE/.notdef/.notdef
/.notdef/.notdef/quoteleft/quoteright/quotedblleft/quotedblright/bullet
/endash/emdash/tilde/trademark/scaron/guilsinglright/oe/.notdef/.notdef
/Ydieresis WindowsLatin1Encoding 128 32 getinterval astore pop}
{/WindowsLatin1Encoding StandardEncoding bdef} ifelse
/reencode {exch dup where {pop load} {pop StandardEncoding} ifelse
  exch dup 3 1 roll findfont dup length dict begin
  { 1 index /FID ne {def}{pop pop} ifelse } forall
  /Encoding exch def currentdict end definefont pop} bdef
/isroman {findfont /CharStrings get /Agrave known} bdef
/FMSR {3 1 roll 1 index dup isroman {reencode} {pop pop} ifelse
  exch FMS} bdef
/csm {1 dpi2point div -1 dpi2point div scale neg translate
 dup landscapeMode eq {pop -90 rotate}
  {rotateMode eq {90 rotate} if} ifelse} bdef
% line types: solid, dotted, dashed, dotdash
/SO { [] 0 setdash } bdef
/DO { [.5 dpi2point mul 4 dpi2point mul] 0 setdash } bdef
/DA { [6 dpi2point mul] 0 setdash } bdef
/DD { [.5 dpi2point mul 4 dpi2point mul 6 dpi2point mul 4
  dpi2point mul] 0 setdash } bdef
% macros for lines and objects
/L {lineto stroke} bdef
/MP {3 1 roll moveto 1 sub {rlineto} repeat} bdef
/AP {{rlineto} repeat} bdef
/PDlw -1 def
/W {/PDlw currentlinewidth def setlinewidth} def
/PP {closepath eofill} bdef
/DP {closepath stroke} bdef
/MR {4 -2 roll moveto dup  0 exch rlineto exch 0 rlineto
  neg 0 exch rlineto closepath} bdef
/FR {MR stroke} bdef
/PR {MR fill} bdef
/L1i {{currentfile picstr readhexstring pop} image} bdef
/tMatrix matrix def
/MakeOval {newpath tMatrix currentmatrix pop translate scale
0 0 1 0 360 arc tMatrix setmatrix} bdef
/FO {MakeOval stroke} bdef
/PO {MakeOval fill} bdef
/PD {currentlinewidth 2 div 0 360 arc fill
   PDlw -1 eq not {PDlw w /PDlw -1 def} if} def
/FA {newpath tMatrix currentmatrix pop translate scale
  0 0 1 5 -2 roll arc tMatrix setmatrix stroke} bdef
/PA {newpath tMatrix currentmatrix pop	translate 0 0 moveto scale
  0 0 1 5 -2 roll arc closepath tMatrix setmatrix fill} bdef
/FAn {newpath tMatrix currentmatrix pop translate scale
  0 0 1 5 -2 roll arcn tMatrix setmatrix stroke} bdef
/PAn {newpath tMatrix currentmatrix pop translate 0 0 moveto scale
  0 0 1 5 -2 roll arcn closepath tMatrix setmatrix fill} bdef
/vradius 0 def /hradius 0 def /lry 0 def
/lrx 0 def /uly 0 def /ulx 0 def /rad 0 def
/MRR {/vradius xdef /hradius xdef /lry xdef /lrx xdef /uly xdef
  /ulx xdef newpath tMatrix currentmatrix pop ulx hradius add uly
  vradius add translate hradius vradius scale 0 0 1 180 270 arc 
  tMatrix setmatrix lrx hradius sub uly vradius add translate
  hradius vradius scale 0 0 1 270 360 arc tMatrix setmatrix
  lrx hradius sub lry vradius sub translate hradius vradius scale
  0 0 1 0 90 arc tMatrix setmatrix ulx hradius add lry vradius sub
  translate hradius vradius scale 0 0 1 90 180 arc tMatrix setmatrix
  closepath} bdef
/FRR {MRR stroke } bdef
/PRR {MRR fill } bdef
/MlrRR {/lry xdef /lrx xdef /uly xdef /ulx xdef /rad lry uly sub 2 div def
  newpath tMatrix currentmatrix pop ulx rad add uly rad add translate
  rad rad scale 0 0 1 90 270 arc tMatrix setmatrix lrx rad sub lry rad
  sub translate rad rad scale 0 0 1 270 90 arc tMatrix setmatrix
  closepath} bdef
/FlrRR {MlrRR stroke } bdef
/PlrRR {MlrRR fill } bdef
/MtbRR {/lry xdef /lrx xdef /uly xdef /ulx xdef /rad lrx ulx sub 2 div def
  newpath tMatrix currentmatrix pop ulx rad add uly rad add translate
  rad rad scale 0 0 1 180 360 arc tMatrix setmatrix lrx rad sub lry rad
  sub translate rad rad scale 0 0 1 0 180 arc tMatrix setmatrix
  closepath} bdef
/FtbRR {MtbRR stroke } bdef
/PtbRR {MtbRR fill } bdef
/stri 6 array def /dtri 6 array def
/smat 6 array def /dmat 6 array def
/tmat1 6 array def /tmat2 6 array def /dif 3 array def
/asub {/ind2 exch def /ind1 exch def dup dup
  ind1 get exch ind2 get sub exch } bdef
/tri_to_matrix {
  2 0 asub 3 1 asub 4 0 asub 5 1 asub
  dup 0 get exch 1 get 7 -1 roll astore } bdef
/compute_transform {
  dmat dtri tri_to_matrix tmat1 invertmatrix 
  smat stri tri_to_matrix tmat2 concatmatrix } bdef
/ds {stri astore pop} bdef
/dt {dtri astore pop} bdef
/db {2 copy /cols xdef /rows xdef mul dup 3 mul string
  currentfile 
  3 index 0 eq {/ASCIIHexDecode filter}
  {/ASCII85Decode filter 3 index 2 eq {/RunLengthDecode filter} if }
  ifelse exch readstring pop
  dup 0 3 index getinterval /rbmap xdef
  dup 2 index dup getinterval /gbmap xdef
  1 index dup 2 mul exch getinterval /bbmap xdef pop pop}bdef
/it {gs np dtri aload pop moveto lineto lineto cp c
  cols rows 8 compute_transform 
  rbmap gbmap bbmap true 3 colorimage gr}bdef
/il {newpath moveto lineto stroke}bdef
currentdict end def
%%EndProlog

%%BeginSetup
MathWorks begin

0 cap

end
%%EndSetup

%%Page: 1 1
%%BeginPageSetup
%%PageBoundingBox:  -261    41   872   750
MathWorks begin
bpage
%%EndPageSetup

%%BeginObject: obj1
bplot

/dpi2point 12 def
portraitMode -3132 9000 csm

    0     0 13607  8505 rc
89 dict begin %Colortable dictionary
/c0 { 0.000000 0.000000 0.000000 sr} bdef
/c1 { 1.000000 1.000000 1.000000 sr} bdef
/c2 { 0.900000 0.000000 0.000000 sr} bdef
/c3 { 0.000000 0.820000 0.000000 sr} bdef
/c4 { 0.000000 0.000000 0.800000 sr} bdef
/c5 { 0.910000 0.820000 0.320000 sr} bdef
/c6 { 1.000000 0.260000 0.820000 sr} bdef
/c7 { 0.000000 0.820000 0.820000 sr} bdef
c0
1 j
1 sg
   0    0 13608 8506 rf
6 w
0 6930 10546 0 0 -6930 1768 7568 4 MP
PP
-10546 0 0 6930 10546 0 0 -6930 1768 7568 5 MP stroke
4 w
DO
SO
6 w
0 sg
1768 7568 mt 12314 7568 L
1768 7568 mt 1768  638 L
2132 7568 mt 2132 7463 L
%%IncludeResource: font Helvetica
/Helvetica /WindowsLatin1Encoding 120 FMSR

1979 7714 mt 
(-0.5) s
3576 7568 mt 3576 7463 L
3543 7714 mt 
(0) s
5020 7568 mt 5020 7463 L
4937 7714 mt 
(0.5) s
6463 7568 mt 6463 7463 L
6430 7714 mt 
(1) s
7907 7568 mt 7907 7463 L
7824 7714 mt 
(1.5) s
9351 7568 mt 9351 7463 L
9318 7714 mt 
(2) s
10795 7568 mt 10795 7463 L
10712 7714 mt 
(2.5) s
12239 7568 mt 12239 7463 L
12206 7714 mt 
(3) s
12044 7916 mt 
(x 10) s
%%IncludeResource: font Helvetica
/Helvetica /WindowsLatin1Encoding 80 FMSR

12270 7842 mt 
(4) s
1768 7568 mt 1874 7568 L
%%IncludeResource: font Helvetica
/Helvetica /WindowsLatin1Encoding 120 FMSR

1668 7612 mt 
(0) s
1768 6124 mt 1874 6124 L
1568 6168 mt 
(0.5) s
1768 4681 mt 1874 4681 L
1668 4725 mt 
(1) s
1768 3237 mt 1874 3237 L
1568 3281 mt 
(1.5) s
1768 1793 mt 1874 1793 L
1668 1837 mt 
(2) s
1768  584 mt 
(x 10) s
%%IncludeResource: font Helvetica
/Helvetica /WindowsLatin1Encoding 80 FMSR

1994  510 mt 
(4) s
gs 1768 638 10547 6931 rc
12 w
0 j
3576 6991  577  577 rectstroke
1 j
0 j
4153 6991  578  577 rectstroke
1 j
0 j
4731 6991  577  577 rectstroke
1 j
0 j
5308 6991  578  577 rectstroke
1 j
0 j
5886 6991  577  577 rectstroke
1 j
0 j
6463 6991  578  577 rectstroke
1 j
0 j
7041 6991  578  577 rectstroke
1 j
0 j
7619 6991  577  577 rectstroke
1 j
0 j
8196 6991  578  577 rectstroke
1 j
0 j
8774 6991  577  577 rectstroke
1 j
0 j
9351 6991  578  577 rectstroke
1 j
0 j
9929 6991  577  577 rectstroke
1 j
0 j
3576 6413  577  578 rectstroke
1 j
0 j
4153 6413  578  578 rectstroke
1 j
0 j
4731 6413  577  578 rectstroke
1 j
0 j
5308 6413  578  578 rectstroke
1 j
0 j
5886 6413  577  578 rectstroke
1 j
0 j
6463 6413  578  578 rectstroke
1 j
0 j
7041 6413  578  578 rectstroke
1 j
0 j
7619 6413  577  578 rectstroke
1 j
0 j
8196 6413  578  578 rectstroke
1 j
0 j
8774 6413  577  578 rectstroke
1 j
0 j
9351 6413  578  578 rectstroke
1 j
0 j
9929 6413  577  578 rectstroke
1 j
0 j
3576 5836  577  577 rectstroke
1 j
0 j
4153 5836  578  577 rectstroke
1 j
0 j
4731 5836  577  577 rectstroke
1 j
0 j
5308 5836  578  577 rectstroke
1 j
0 j
5886 5836  577  577 rectstroke
1 j
0 j
6463 5836  578  577 rectstroke
1 j
0 j
7041 5836  578  577 rectstroke
1 j
0 j
7619 5836  577  577 rectstroke
1 j
0 j
8196 5836  578  577 rectstroke
1 j
0 j
8774 5836  577  577 rectstroke
1 j
0 j
9351 5836  578  577 rectstroke
1 j
0 j
9929 5836  577  577 rectstroke
1 j
0 j
3576 5258  577  578 rectstroke
1 j
0 j
4153 5258  578  578 rectstroke
1 j
0 j
4731 5258  577  578 rectstroke
1 j
0 j
5308 5258  578  578 rectstroke
1 j
0 j
5886 5258  577  578 rectstroke
1 j
0 j
6463 5258  578  578 rectstroke
1 j
0 j
7041 5258  578  578 rectstroke
1 j
0 j
7619 5258  577  578 rectstroke
1 j
0 j
8196 5258  578  578 rectstroke
1 j
0 j
8774 5258  577  578 rectstroke
1 j
0 j
9351 5258  578  578 rectstroke
1 j
0 j
9929 5258  577  578 rectstroke
1 j
0 j
3576 4681  577  577 rectstroke
1 j
0 j
4153 4681  578  577 rectstroke
1 j
0 j
4731 4681  577  577 rectstroke
1 j
0 j
5308 4681  578  577 rectstroke
1 j
0 j
5886 4681  577  577 rectstroke
1 j
0 j
6463 4681  578  577 rectstroke
1 j
0 j
7041 4681  578  577 rectstroke
1 j
0 j
7619 4681  577  577 rectstroke
1 j
0 j
8196 4681  578  577 rectstroke
1 j
0 j
8774 4681  577  577 rectstroke
1 j
0 j
9351 4681  578  577 rectstroke
1 j
0 j
9929 4681  577  577 rectstroke
1 j
0 j
3576 4103  577  578 rectstroke
1 j
0 j
4153 4103  578  578 rectstroke
1 j
0 j
4731 4103  577  578 rectstroke
1 j
0 j
5308 4103  578  578 rectstroke
1 j
0 j
5886 4103  577  578 rectstroke
1 j
0 j
6463 4103  578  578 rectstroke
1 j
0 j
7041 4103  578  578 rectstroke
1 j
0 j
7619 4103  577  578 rectstroke
1 j
0 j
8196 4103  578  578 rectstroke
1 j
0 j
8774 4103  577  578 rectstroke
1 j
0 j
9351 4103  578  578 rectstroke
1 j
0 j
9929 4103  577  578 rectstroke
1 j
0 j
3576 3525  577  578 rectstroke
1 j
0 j
4153 3525  578  578 rectstroke
1 j
0 j
4731 3525  577  578 rectstroke
1 j
0 j
5308 3525  578  578 rectstroke
1 j
0 j
5886 3525  577  578 rectstroke
1 j
0 j
6463 3525  578  578 rectstroke
1 j
0 j
7041 3525  578  578 rectstroke
1 j
0 j
7619 3525  577  578 rectstroke
1 j
0 j
8196 3525  578  578 rectstroke
1 j
0 j
8774 3525  577  578 rectstroke
1 j
0 j
9351 3525  578  578 rectstroke
1 j
0 j
9929 3525  577  578 rectstroke
1 j
0 j
3576 2948  577  577 rectstroke
1 j
0 j
4153 2948  578  577 rectstroke
1 j
0 j
4731 2948  577  577 rectstroke
1 j
0 j
5308 2948  578  577 rectstroke
1 j
0 j
5886 2948  577  577 rectstroke
1 j
0 j
6463 2948  578  577 rectstroke
1 j
0 j
7041 2948  578  577 rectstroke
1 j
0 j
7619 2948  577  577 rectstroke
1 j
0 j
8196 2948  578  577 rectstroke
1 j
0 j
8774 2948  577  577 rectstroke
1 j
0 j
9351 2948  578  577 rectstroke
1 j
0 j
9929 2948  577  577 rectstroke
1 j
0 j
3576 2370  577  578 rectstroke
1 j
0 j
4153 2370  578  578 rectstroke
1 j
0 j
4731 2370  577  578 rectstroke
1 j
0 j
5308 2370  578  578 rectstroke
1 j
0 j
5886 2370  577  578 rectstroke
1 j
0 j
6463 2370  578  578 rectstroke
1 j
0 j
7041 2370  578  578 rectstroke
1 j
0 j
7619 2370  577  578 rectstroke
1 j
0 j
8196 2370  578  578 rectstroke
1 j
0 j
8774 2370  577  578 rectstroke
1 j
0 j
9351 2370  578  578 rectstroke
1 j
0 j
9929 2370  577  578 rectstroke
1 j
0 j
3576 1793  577  577 rectstroke
1 j
0 j
4153 1793  578  577 rectstroke
1 j
0 j
4731 1793  577  577 rectstroke
1 j
0 j
5308 1793  578  577 rectstroke
1 j
0 j
5886 1793  577  577 rectstroke
1 j
0 j
6463 1793  578  577 rectstroke
1 j
0 j
7041 1793  578  577 rectstroke
1 j
0 j
7619 1793  577  577 rectstroke
1 j
0 j
8196 1793  578  577 rectstroke
1 j
0 j
8774 1793  577  577 rectstroke
1 j
0 j
9351 1793  578  577 rectstroke
1 j
0 j
9929 1793  577  577 rectstroke
1 j
0 j
3576 1215  577  578 rectstroke
1 j
0 j
4153 1215  578  578 rectstroke
1 j
0 j
4731 1215  577  578 rectstroke
1 j
0 j
5308 1215  578  578 rectstroke
1 j
0 j
5886 1215  577  578 rectstroke
1 j
0 j
6463 1215  578  578 rectstroke
1 j
0 j
7041 1215  578  578 rectstroke
1 j
0 j
7619 1215  577  578 rectstroke
1 j
0 j
8196 1215  578  578 rectstroke
1 j
0 j
8774 1215  577  578 rectstroke
1 j
0 j
9351 1215  578  578 rectstroke
1 j
0 j
9929 1215  577  578 rectstroke
1 j
0 j
gr
3576  638  577  577 rectstroke
gs 1768 638 10547 6931 rc
1 j
0 j
gr
4153  638  578  577 rectstroke
gs 1768 638 10547 6931 rc
1 j
0 j
gr
4731  638  577  577 rectstroke
gs 1768 638 10547 6931 rc
1 j
0 j
gr
5308  638  578  577 rectstroke
gs 1768 638 10547 6931 rc
1 j
0 j
gr
5886  638  577  577 rectstroke
gs 1768 638 10547 6931 rc
1 j
0 j
gr
6463  638  578  577 rectstroke
gs 1768 638 10547 6931 rc
1 j
0 j
gr
7041  638  578  577 rectstroke
gs 1768 638 10547 6931 rc
1 j
0 j
gr
7619  638  577  577 rectstroke
gs 1768 638 10547 6931 rc
1 j
0 j
gr
8196  638  578  577 rectstroke
gs 1768 638 10547 6931 rc
1 j
0 j
gr
8774  638  577  577 rectstroke
gs 1768 638 10547 6931 rc
1 j
0 j
gr
9351  638  578  577 rectstroke
gs 1768 638 10547 6931 rc
1 j
0 j
gr
9929  638  577  577 rectstroke
gs 1768 638 10547 6931 rc
1 j
0 j
/c8 { 0.800000 0.150000 0.150000 sr} bdef
c8
3576 6991  577  577 rf
0 sg
3576 6991  577  577 rectstroke
1 j
0 j
/c9 { 0.400000 0.400000 0.200000 sr} bdef
c9
3576 6413  577  578 rf
0 sg
3576 6413  577  578 rectstroke
1 j
0 j
c9
4153 6413  578  578 rf
0 sg
4153 6413  578  578 rectstroke
1 j
0 j
c9
4731 6413  577  578 rf
0 sg
4731 6413  577  578 rectstroke
1 j
0 j
c9
5308 6413  578  578 rf
0 sg
5308 6413  578  578 rectstroke
1 j
0 j
c9
5886 6413  577  578 rf
0 sg
5886 6413  577  578 rectstroke
1 j
0 j
c9
6463 6413  578  578 rf
0 sg
6463 6413  578  578 rectstroke
1 j
0 j
c9
7041 6413  578  578 rf
0 sg
7041 6413  578  578 rectstroke
1 j
0 j
c9
7619 6413  577  578 rf
0 sg
7619 6413  577  578 rectstroke
1 j
0 j
c9
8196 6413  578  578 rf
0 sg
8196 6413  578  578 rectstroke
1 j
0 j
/c10 { 1.000000 1.000000 0.200000 sr} bdef
c10
4153 5836  578  577 rf
0 sg
4153 5836  578  577 rectstroke
1 j
0 j
c10
4731 5836  577  577 rf
0 sg
4731 5836  577  577 rectstroke
1 j
0 j
c10
4153 5258  578  578 rf
0 sg
4153 5258  578  578 rectstroke
1 j
0 j
c10
4731 5258  577  578 rf
0 sg
4731 5258  577  578 rectstroke
1 j
0 j
c10
7619 5836  577  577 rf
0 sg
7619 5836  577  577 rectstroke
1 j
0 j
c10
8196 5836  578  577 rf
0 sg
8196 5836  578  577 rectstroke
1 j
0 j
c10
7619 5258  577  578 rf
0 sg
7619 5258  577  578 rectstroke
1 j
0 j
c10
8196 5258  578  578 rf
0 sg
8196 5258  578  578 rectstroke
1 j
24 w
0 j
/c11 { 0.100000 0.900000 0.200000 sr} bdef
c11
3576 6991  577  577 rf
0 sg
3576 6991  577  577 rectstroke
1 j
0 j
c11
4153 6991  578  577 rf
0 sg
4153 6991  578  577 rectstroke
1 j
0 j
c11
4731 6991  577  577 rf
0 sg
4731 6991  577  577 rectstroke
1 j
0 j
c11
5308 6991  578  577 rf
0 sg
5308 6991  578  577 rectstroke
1 j
0 j
c11
5886 6991  577  577 rf
0 sg
5886 6991  577  577 rectstroke
1 j
0 j
c11
4153 6991  578  577 rf
0 sg
4153 6991  578  577 rectstroke
1 j
0 j
c11
4731 6991  577  577 rf
0 sg
4731 6991  577  577 rectstroke
1 j
0 j
c11
5308 6991  578  577 rf
0 sg
5308 6991  578  577 rectstroke
1 j
0 j
c11
5886 6991  577  577 rf
0 sg
5886 6991  577  577 rectstroke
1 j
0 j
c11
6463 6991  578  577 rf
0 sg
6463 6991  578  577 rectstroke
1 j
0 j
c11
4731 6991  577  577 rf
0 sg
4731 6991  577  577 rectstroke
1 j
0 j
c11
5308 6991  578  577 rf
0 sg
5308 6991  578  577 rectstroke
1 j
0 j
c11
5886 6991  577  577 rf
0 sg
5886 6991  577  577 rectstroke
1 j
0 j
c11
6463 6991  578  577 rf
0 sg
6463 6991  578  577 rectstroke
1 j
0 j
c11
7041 6991  578  577 rf
0 sg
7041 6991  578  577 rectstroke
1 j
0 j
c11
5308 6991  578  577 rf
0 sg
5308 6991  578  577 rectstroke
1 j
0 j
c11
5886 6991  577  577 rf
0 sg
5886 6991  577  577 rectstroke
1 j
0 j
c11
6463 6991  578  577 rf
0 sg
6463 6991  578  577 rectstroke
1 j
0 j
c11
7041 6991  578  577 rf
0 sg
7041 6991  578  577 rectstroke
1 j
0 j
c11
7619 6991  577  577 rf
0 sg
7619 6991  577  577 rectstroke
1 j
0 j
c11
5886 6991  577  577 rf
0 sg
5886 6991  577  577 rectstroke
1 j
0 j
c11
6463 6991  578  577 rf
0 sg
6463 6991  578  577 rectstroke
1 j
0 j
c11
7041 6991  578  577 rf
0 sg
7041 6991  578  577 rectstroke
1 j
0 j
c11
7619 6991  577  577 rf
0 sg
7619 6991  577  577 rectstroke
1 j
0 j
c11
8196 6991  578  577 rf
0 sg
8196 6991  578  577 rectstroke
1 j
0 j
c11
6463 6991  578  577 rf
0 sg
6463 6991  578  577 rectstroke
1 j
0 j
c11
7041 6991  578  577 rf
0 sg
7041 6991  578  577 rectstroke
1 j
0 j
c11
7619 6991  577  577 rf
0 sg
7619 6991  577  577 rectstroke
1 j
0 j
c11
8196 6991  578  577 rf
0 sg
8196 6991  578  577 rectstroke
1 j
0 j
c11
8774 6991  577  577 rf
0 sg
8774 6991  577  577 rectstroke
1 j
0 j
c11
7041 6991  578  577 rf
0 sg
7041 6991  578  577 rectstroke
1 j
0 j
c11
7619 6991  577  577 rf
0 sg
7619 6991  577  577 rectstroke
1 j
0 j
c11
8196 6991  578  577 rf
0 sg
8196 6991  578  577 rectstroke
1 j
0 j
c11
8774 6991  577  577 rf
0 sg
8774 6991  577  577 rectstroke
1 j
0 j
c11
8774 6413  577  578 rf
0 sg
8774 6413  577  578 rectstroke
1 j
0 j
c11
7619 6991  577  577 rf
0 sg
7619 6991  577  577 rectstroke
1 j
0 j
c11
8196 6991  578  577 rf
0 sg
8196 6991  578  577 rectstroke
1 j
0 j
c11
8774 6991  577  577 rf
0 sg
8774 6991  577  577 rectstroke
1 j
0 j
c11
8774 6413  577  578 rf
0 sg
8774 6413  577  578 rectstroke
1 j
0 j
c11
9351 6413  578  578 rf
0 sg
9351 6413  578  578 rectstroke
1 j
0 j
c11
8196 6991  578  577 rf
0 sg
8196 6991  578  577 rectstroke
1 j
0 j
c11
8774 6991  577  577 rf
0 sg
8774 6991  577  577 rectstroke
1 j
0 j
c11
8774 6413  577  578 rf
0 sg
8774 6413  577  578 rectstroke
1 j
0 j
c11
9351 6413  578  578 rf
0 sg
9351 6413  578  578 rectstroke
1 j
0 j
c11
9351 5836  578  577 rf
0 sg
9351 5836  578  577 rectstroke
1 j
0 j
c11
8774 6991  577  577 rf
0 sg
8774 6991  577  577 rectstroke
1 j
0 j
c11
8774 6413  577  578 rf
0 sg
8774 6413  577  578 rectstroke
1 j
0 j
c11
9351 6413  578  578 rf
0 sg
9351 6413  578  578 rectstroke
1 j
0 j
c11
9351 5836  578  577 rf
0 sg
9351 5836  578  577 rectstroke
1 j
0 j
c11
9351 5258  578  578 rf
0 sg
9351 5258  578  578 rectstroke
1 j
0 j
c11
8774 6413  577  578 rf
0 sg
8774 6413  577  578 rectstroke
1 j
0 j
c11
9351 6413  578  578 rf
0 sg
9351 6413  578  578 rectstroke
1 j
0 j
c11
9351 5836  578  577 rf
0 sg
9351 5836  578  577 rectstroke
1 j
0 j
c11
9351 5258  578  578 rf
0 sg
9351 5258  578  578 rectstroke
1 j
0 j
c11
9351 4681  578  577 rf
0 sg
9351 4681  578  577 rectstroke
1 j
0 j
c11
9351 6413  578  578 rf
0 sg
9351 6413  578  578 rectstroke
1 j
0 j
c11
9351 5836  578  577 rf
0 sg
9351 5836  578  577 rectstroke
1 j
0 j
c11
9351 5258  578  578 rf
0 sg
9351 5258  578  578 rectstroke
1 j
0 j
c11
9351 4681  578  577 rf
0 sg
9351 4681  578  577 rectstroke
1 j
0 j
c11
9351 4103  578  578 rf
0 sg
9351 4103  578  578 rectstroke
1 j
0 j
c11
9351 5836  578  577 rf
0 sg
9351 5836  578  577 rectstroke
1 j
0 j
c11
9351 5258  578  578 rf
0 sg
9351 5258  578  578 rectstroke
1 j
0 j
c11
9351 4681  578  577 rf
0 sg
9351 4681  578  577 rectstroke
1 j
0 j
c11
9351 4103  578  578 rf
0 sg
9351 4103  578  578 rectstroke
1 j
0 j
c11
8774 4103  577  578 rf
0 sg
8774 4103  577  578 rectstroke
1 j
0 j
c11
9351 5258  578  578 rf
0 sg
9351 5258  578  578 rectstroke
1 j
0 j
c11
9351 4681  578  577 rf
0 sg
9351 4681  578  577 rectstroke
1 j
0 j
c11
9351 4103  578  578 rf
0 sg
9351 4103  578  578 rectstroke
1 j
0 j
c11
8774 4103  577  578 rf
0 sg
8774 4103  577  578 rectstroke
1 j
0 j
c11
8774 3525  577  578 rf
0 sg
8774 3525  577  578 rectstroke
1 j
0 j
c11
9351 4681  578  577 rf
0 sg
9351 4681  578  577 rectstroke
1 j
0 j
c11
9351 4103  578  578 rf
0 sg
9351 4103  578  578 rectstroke
1 j
0 j
c11
8774 4103  577  578 rf
0 sg
8774 4103  577  578 rectstroke
1 j
0 j
c11
8774 3525  577  578 rf
0 sg
8774 3525  577  578 rectstroke
1 j
0 j
c11
8196 3525  578  578 rf
0 sg
8196 3525  578  578 rectstroke
1 j
0 j
c11
9351 4103  578  578 rf
0 sg
9351 4103  578  578 rectstroke
1 j
0 j
c11
8774 4103  577  578 rf
0 sg
8774 4103  577  578 rectstroke
1 j
0 j
c11
8774 3525  577  578 rf
0 sg
8774 3525  577  578 rectstroke
1 j
0 j
c11
8196 3525  578  578 rf
0 sg
8196 3525  578  578 rectstroke
1 j
0 j
c11
8196 2948  578  577 rf
0 sg
8196 2948  578  577 rectstroke
1 j
0 j
c11
8774 4103  577  578 rf
0 sg
8774 4103  577  578 rectstroke
1 j
0 j
c11
8774 3525  577  578 rf
0 sg
8774 3525  577  578 rectstroke
1 j
0 j
c11
8196 3525  578  578 rf
0 sg
8196 3525  578  578 rectstroke
1 j
0 j
c11
8196 2948  578  577 rf
0 sg
8196 2948  578  577 rectstroke
1 j
0 j
c11
7619 2948  577  577 rf
0 sg
7619 2948  577  577 rectstroke
1 j
0 j
c11
8774 3525  577  578 rf
0 sg
8774 3525  577  578 rectstroke
1 j
0 j
c11
8196 3525  578  578 rf
0 sg
8196 3525  578  578 rectstroke
1 j
0 j
c11
8196 2948  578  577 rf
0 sg
8196 2948  578  577 rectstroke
1 j
0 j
c11
7619 2948  577  577 rf
0 sg
7619 2948  577  577 rectstroke
1 j
0 j
c11
7041 2948  578  577 rf
0 sg
7041 2948  578  577 rectstroke
1 j
0 j
c11
8196 3525  578  578 rf
0 sg
8196 3525  578  578 rectstroke
1 j
0 j
c11
8196 2948  578  577 rf
0 sg
8196 2948  578  577 rectstroke
1 j
0 j
c11
7619 2948  577  577 rf
0 sg
7619 2948  577  577 rectstroke
1 j
0 j
c11
7041 2948  578  577 rf
0 sg
7041 2948  578  577 rectstroke
1 j
0 j
c11
6463 2948  578  577 rf
0 sg
6463 2948  578  577 rectstroke
1 j
0 j
c11
8196 2948  578  577 rf
0 sg
8196 2948  578  577 rectstroke
1 j
0 j
c11
7619 2948  577  577 rf
0 sg
7619 2948  577  577 rectstroke
1 j
0 j
c11
7041 2948  578  577 rf
0 sg
7041 2948  578  577 rectstroke
1 j
0 j
c11
6463 2948  578  577 rf
0 sg
6463 2948  578  577 rectstroke
1 j
0 j
c11
5886 2948  577  577 rf
0 sg
5886 2948  577  577 rectstroke
1 j
0 j
c11
7619 2948  577  577 rf
0 sg
7619 2948  577  577 rectstroke
1 j
0 j
c11
7041 2948  578  577 rf
0 sg
7041 2948  578  577 rectstroke
1 j
0 j
c11
6463 2948  578  577 rf
0 sg
6463 2948  578  577 rectstroke
1 j
0 j
c11
5886 2948  577  577 rf
0 sg
5886 2948  577  577 rectstroke
1 j
0 j
c11
5308 2948  578  577 rf
0 sg
5308 2948  578  577 rectstroke
1 j
0 j
c11
7041 2948  578  577 rf
0 sg
7041 2948  578  577 rectstroke
1 j
0 j
c11
6463 2948  578  577 rf
0 sg
6463 2948  578  577 rectstroke
1 j
0 j
c11
5886 2948  577  577 rf
0 sg
5886 2948  577  577 rectstroke
1 j
0 j
c11
5308 2948  578  577 rf
0 sg
5308 2948  578  577 rectstroke
1 j
0 j
c11
5308 3525  578  578 rf
0 sg
5308 3525  578  578 rectstroke
1 j
0 j
c11
6463 2948  578  577 rf
0 sg
6463 2948  578  577 rectstroke
1 j
0 j
c11
5886 2948  577  577 rf
0 sg
5886 2948  577  577 rectstroke
1 j
0 j
c11
5308 2948  578  577 rf
0 sg
5308 2948  578  577 rectstroke
1 j
0 j
c11
5308 3525  578  578 rf
0 sg
5308 3525  578  578 rectstroke
1 j
0 j
c11
4731 3525  577  578 rf
0 sg
4731 3525  577  578 rectstroke
1 j
0 j
c11
5886 2948  577  577 rf
0 sg
5886 2948  577  577 rectstroke
1 j
0 j
c11
5308 2948  578  577 rf
0 sg
5308 2948  578  577 rectstroke
1 j
0 j
c11
5308 3525  578  578 rf
0 sg
5308 3525  578  578 rectstroke
1 j
0 j
c11
4731 3525  577  578 rf
0 sg
4731 3525  577  578 rectstroke
1 j
0 j
c11
4731 4103  577  578 rf
0 sg
4731 4103  577  578 rectstroke
1 j
0 j
c11
5308 2948  578  577 rf
0 sg
5308 2948  578  577 rectstroke
1 j
0 j
c11
5308 3525  578  578 rf
0 sg
5308 3525  578  578 rectstroke
1 j
0 j
c11
4731 3525  577  578 rf
0 sg
4731 3525  577  578 rectstroke
1 j
0 j
c11
4731 4103  577  578 rf
0 sg
4731 4103  577  578 rectstroke
1 j
0 j
c11
4731 4681  577  577 rf
0 sg
4731 4681  577  577 rectstroke
1 j
0 j
c11
5308 3525  578  578 rf
0 sg
5308 3525  578  578 rectstroke
1 j
0 j
c11
4731 3525  577  578 rf
0 sg
4731 3525  577  578 rectstroke
1 j
0 j
c11
4731 4103  577  578 rf
0 sg
4731 4103  577  578 rectstroke
1 j
0 j
c11
4731 4681  577  577 rf
0 sg
4731 4681  577  577 rectstroke
1 j
0 j
c11
4731 5258  577  578 rf
0 sg
4731 5258  577  578 rectstroke
1 j
0 j
c11
4731 3525  577  578 rf
0 sg
4731 3525  577  578 rectstroke
1 j
0 j
c11
4731 4103  577  578 rf
0 sg
4731 4103  577  578 rectstroke
1 j
0 j
c11
4731 4681  577  577 rf
0 sg
4731 4681  577  577 rectstroke
1 j
0 j
c11
4731 5258  577  578 rf
0 sg
4731 5258  577  578 rectstroke
1 j
0 j
c11
5308 5258  578  578 rf
0 sg
5308 5258  578  578 rectstroke
1 j
0 j
c11
4731 4103  577  578 rf
0 sg
4731 4103  577  578 rectstroke
1 j
0 j
c11
4731 4681  577  577 rf
0 sg
4731 4681  577  577 rectstroke
1 j
0 j
c11
4731 5258  577  578 rf
0 sg
4731 5258  577  578 rectstroke
1 j
0 j
c11
5308 5258  578  578 rf
0 sg
5308 5258  578  578 rectstroke
1 j
0 j
c11
5308 5836  578  577 rf
0 sg
5308 5836  578  577 rectstroke
1 j
0 j
c11
4731 4681  577  577 rf
0 sg
4731 4681  577  577 rectstroke
1 j
0 j
c11
4731 5258  577  578 rf
0 sg
4731 5258  577  578 rectstroke
1 j
0 j
c11
5308 5258  578  578 rf
0 sg
5308 5258  578  578 rectstroke
1 j
0 j
c11
5308 5836  578  577 rf
0 sg
5308 5836  578  577 rectstroke
1 j
0 j
c11
5886 5836  577  577 rf
0 sg
5886 5836  577  577 rectstroke
1 j
0 j
c11
4731 5258  577  578 rf
0 sg
4731 5258  577  578 rectstroke
1 j
0 j
c11
5308 5258  578  578 rf
0 sg
5308 5258  578  578 rectstroke
1 j
0 j
c11
5308 5836  578  577 rf
0 sg
5308 5836  578  577 rectstroke
1 j
0 j
c11
5886 5836  577  577 rf
0 sg
5886 5836  577  577 rectstroke
1 j
0 j
c11
6463 5836  578  577 rf
0 sg
6463 5836  578  577 rectstroke
1 j
0 j
c11
5308 5258  578  578 rf
0 sg
5308 5258  578  578 rectstroke
1 j
0 j
c11
5308 5836  578  577 rf
0 sg
5308 5836  578  577 rectstroke
1 j
0 j
c11
5886 5836  577  577 rf
0 sg
5886 5836  577  577 rectstroke
1 j
0 j
c11
6463 5836  578  577 rf
0 sg
6463 5836  578  577 rectstroke
1 j
0 j
c11
7041 5836  578  577 rf
0 sg
7041 5836  578  577 rectstroke
1 j
0 j
c11
5308 5836  578  577 rf
0 sg
5308 5836  578  577 rectstroke
1 j
0 j
c11
5886 5836  577  577 rf
0 sg
5886 5836  577  577 rectstroke
1 j
0 j
c11
6463 5836  578  577 rf
0 sg
6463 5836  578  577 rectstroke
1 j
0 j
c11
7041 5836  578  577 rf
0 sg
7041 5836  578  577 rectstroke
1 j
0 j
c11
7619 5836  577  577 rf
0 sg
7619 5836  577  577 rectstroke
1 j
0 j
c8
3576 6991  577  577 rf
0 sg
3576 6991  577  577 rectstroke
1 j
6 w
gr


end %%Color Dict

eplot
%%EndObject

epage
end

showpage

%%Trailer
%%EOF
