%!PS-Adobe-3.0 EPSF-3.0
%%Creator: MATLAB, The MathWorks, Inc. Version 7.12.0.635 (R2011a). Operating System: Microsoft Windows 7.
%%Title: C:\Users\Zetian\Desktop\matlab-ltl-hcost\visit_in_order.eps
%%CreationDate: 10/22/2015  01:19:22
%%DocumentNeededFonts: Helvetica
%%+ Courier-Bold
%%DocumentProcessColors: Cyan Magenta Yellow Black
%%LanguageLevel: 2
%%Pages: 1
%%BoundingBox:  -341    31   954   760
%%EndComments

%%BeginProlog
% MathWorks dictionary
/MathWorks 160 dict begin
% definition operators
/bdef {bind def} bind def
/ldef {load def} bind def
/xdef {exch def} bdef
/xstore {exch store} bdef
% operator abbreviations
/c  /clip ldef
/cc /concat ldef
/cp /closepath ldef
/gr /grestore ldef
/gs /gsave ldef
/mt /moveto ldef
/np /newpath ldef
/cm /currentmatrix ldef
/sm /setmatrix ldef
/rm /rmoveto ldef
/rl /rlineto ldef
/s {show newpath} bdef
/sc {setcmykcolor} bdef
/sr /setrgbcolor ldef
/sg /setgray ldef
/w /setlinewidth ldef
/j /setlinejoin ldef
/cap /setlinecap ldef
/rc {rectclip} bdef
/rf {rectfill} bdef
% page state control
/pgsv () def
/bpage {/pgsv save def} bdef
/epage {pgsv restore} bdef
/bplot /gsave ldef
/eplot {stroke grestore} bdef
% orientation switch
/portraitMode 0 def /landscapeMode 1 def /rotateMode 2 def
% coordinate system mappings
/dpi2point 0 def
% font control
/FontSize 0 def
/FMS {/FontSize xstore findfont [FontSize 0 0 FontSize neg 0 0]
  makefont setfont} bdef
/ISOLatin1Encoding where {pop /WindowsLatin1Encoding 256 array bdef
ISOLatin1Encoding WindowsLatin1Encoding copy pop
/.notdef/.notdef/quotesinglbase/florin/quotedblbase/ellipsis/dagger
/daggerdbl/circumflex/perthousand/Scaron/guilsinglleft/OE/.notdef/.notdef
/.notdef/.notdef/quoteleft/quoteright/quotedblleft/quotedblright/bullet
/endash/emdash/tilde/trademark/scaron/guilsinglright/oe/.notdef/.notdef
/Ydieresis WindowsLatin1Encoding 128 32 getinterval astore pop}
{/WindowsLatin1Encoding StandardEncoding bdef} ifelse
/reencode {exch dup where {pop load} {pop StandardEncoding} ifelse
  exch dup 3 1 roll findfont dup length dict begin
  { 1 index /FID ne {def}{pop pop} ifelse } forall
  /Encoding exch def currentdict end definefont pop} bdef
/isroman {findfont /CharStrings get /Agrave known} bdef
/FMSR {3 1 roll 1 index dup isroman {reencode} {pop pop} ifelse
  exch FMS} bdef
/csm {1 dpi2point div -1 dpi2point div scale neg translate
 dup landscapeMode eq {pop -90 rotate}
  {rotateMode eq {90 rotate} if} ifelse} bdef
% line types: solid, dotted, dashed, dotdash
/SO { [] 0 setdash } bdef
/DO { [.5 dpi2point mul 4 dpi2point mul] 0 setdash } bdef
/DA { [6 dpi2point mul] 0 setdash } bdef
/DD { [.5 dpi2point mul 4 dpi2point mul 6 dpi2point mul 4
  dpi2point mul] 0 setdash } bdef
% macros for lines and objects
/L {lineto stroke} bdef
/MP {3 1 roll moveto 1 sub {rlineto} repeat} bdef
/AP {{rlineto} repeat} bdef
/PDlw -1 def
/W {/PDlw currentlinewidth def setlinewidth} def
/PP {closepath eofill} bdef
/DP {closepath stroke} bdef
/MR {4 -2 roll moveto dup  0 exch rlineto exch 0 rlineto
  neg 0 exch rlineto closepath} bdef
/FR {MR stroke} bdef
/PR {MR fill} bdef
/L1i {{currentfile picstr readhexstring pop} image} bdef
/tMatrix matrix def
/MakeOval {newpath tMatrix currentmatrix pop translate scale
0 0 1 0 360 arc tMatrix setmatrix} bdef
/FO {MakeOval stroke} bdef
/PO {MakeOval fill} bdef
/PD {currentlinewidth 2 div 0 360 arc fill
   PDlw -1 eq not {PDlw w /PDlw -1 def} if} def
/FA {newpath tMatrix currentmatrix pop translate scale
  0 0 1 5 -2 roll arc tMatrix setmatrix stroke} bdef
/PA {newpath tMatrix currentmatrix pop	translate 0 0 moveto scale
  0 0 1 5 -2 roll arc closepath tMatrix setmatrix fill} bdef
/FAn {newpath tMatrix currentmatrix pop translate scale
  0 0 1 5 -2 roll arcn tMatrix setmatrix stroke} bdef
/PAn {newpath tMatrix currentmatrix pop translate 0 0 moveto scale
  0 0 1 5 -2 roll arcn closepath tMatrix setmatrix fill} bdef
/vradius 0 def /hradius 0 def /lry 0 def
/lrx 0 def /uly 0 def /ulx 0 def /rad 0 def
/MRR {/vradius xdef /hradius xdef /lry xdef /lrx xdef /uly xdef
  /ulx xdef newpath tMatrix currentmatrix pop ulx hradius add uly
  vradius add translate hradius vradius scale 0 0 1 180 270 arc 
  tMatrix setmatrix lrx hradius sub uly vradius add translate
  hradius vradius scale 0 0 1 270 360 arc tMatrix setmatrix
  lrx hradius sub lry vradius sub translate hradius vradius scale
  0 0 1 0 90 arc tMatrix setmatrix ulx hradius add lry vradius sub
  translate hradius vradius scale 0 0 1 90 180 arc tMatrix setmatrix
  closepath} bdef
/FRR {MRR stroke } bdef
/PRR {MRR fill } bdef
/MlrRR {/lry xdef /lrx xdef /uly xdef /ulx xdef /rad lry uly sub 2 div def
  newpath tMatrix currentmatrix pop ulx rad add uly rad add translate
  rad rad scale 0 0 1 90 270 arc tMatrix setmatrix lrx rad sub lry rad
  sub translate rad rad scale 0 0 1 270 90 arc tMatrix setmatrix
  closepath} bdef
/FlrRR {MlrRR stroke } bdef
/PlrRR {MlrRR fill } bdef
/MtbRR {/lry xdef /lrx xdef /uly xdef /ulx xdef /rad lrx ulx sub 2 div def
  newpath tMatrix currentmatrix pop ulx rad add uly rad add translate
  rad rad scale 0 0 1 180 360 arc tMatrix setmatrix lrx rad sub lry rad
  sub translate rad rad scale 0 0 1 0 180 arc tMatrix setmatrix
  closepath} bdef
/FtbRR {MtbRR stroke } bdef
/PtbRR {MtbRR fill } bdef
/stri 6 array def /dtri 6 array def
/smat 6 array def /dmat 6 array def
/tmat1 6 array def /tmat2 6 array def /dif 3 array def
/asub {/ind2 exch def /ind1 exch def dup dup
  ind1 get exch ind2 get sub exch } bdef
/tri_to_matrix {
  2 0 asub 3 1 asub 4 0 asub 5 1 asub
  dup 0 get exch 1 get 7 -1 roll astore } bdef
/compute_transform {
  dmat dtri tri_to_matrix tmat1 invertmatrix 
  smat stri tri_to_matrix tmat2 concatmatrix } bdef
/ds {stri astore pop} bdef
/dt {dtri astore pop} bdef
/db {2 copy /cols xdef /rows xdef mul dup 3 mul string
  currentfile 
  3 index 0 eq {/ASCIIHexDecode filter}
  {/ASCII85Decode filter 3 index 2 eq {/RunLengthDecode filter} if }
  ifelse exch readstring pop
  dup 0 3 index getinterval /rbmap xdef
  dup 2 index dup getinterval /gbmap xdef
  1 index dup 2 mul exch getinterval /bbmap xdef pop pop}bdef
/it {gs np dtri aload pop moveto lineto lineto cp c
  cols rows 8 compute_transform 
  rbmap gbmap bbmap true 3 colorimage gr}bdef
/il {newpath moveto lineto stroke}bdef
currentdict end def
%%EndProlog

%%BeginSetup
MathWorks begin

0 cap

end
%%EndSetup

%%Page: 1 1
%%BeginPageSetup
%%PageBoundingBox:  -341    31   954   760
MathWorks begin
bpage
%%EndPageSetup

%%BeginObject: obj1
bplot

/dpi2point 12 def
portraitMode -4092 9120 csm

    0     0 15550  8748 rc
90 dict begin %Colortable dictionary
/c0 { 0.000000 0.000000 0.000000 sr} bdef
/c1 { 1.000000 1.000000 1.000000 sr} bdef
/c2 { 0.900000 0.000000 0.000000 sr} bdef
/c3 { 0.000000 0.820000 0.000000 sr} bdef
/c4 { 0.000000 0.000000 0.800000 sr} bdef
/c5 { 0.910000 0.820000 0.320000 sr} bdef
/c6 { 1.000000 0.260000 0.820000 sr} bdef
/c7 { 0.000000 0.820000 0.820000 sr} bdef
c0
1 j
1 sg
   0    0 15551 8749 rf
6 w
0 7129 12051 0 0 -7129 2022 7785 4 MP
PP
-12051 0 0 7129 12051 0 0 -7129 2022 7785 5 MP stroke
4 w
DO
SO
6 w
0 sg
2022 7785 mt 14073 7785 L
2022 7785 mt 2022  656 L
2998 7785 mt 2998 7664 L
%%IncludeResource: font Helvetica
/Helvetica /WindowsLatin1Encoding 120 FMSR

2845 7930 mt 
(-0.5) s
4483 7785 mt 4483 7664 L
4450 7930 mt 
(0) s
5968 7785 mt 5968 7664 L
5885 7930 mt 
(0.5) s
7453 7785 mt 7453 7664 L
7420 7930 mt 
(1) s
8938 7785 mt 8938 7664 L
8855 7930 mt 
(1.5) s
10423 7785 mt 10423 7664 L
10390 7930 mt 
(2) s
11908 7785 mt 11908 7664 L
11825 7930 mt 
(2.5) s
13393 7785 mt 13393 7664 L
13360 7930 mt 
(3) s
13803 8132 mt 
(x 10) s
%%IncludeResource: font Helvetica
/Helvetica /WindowsLatin1Encoding 80 FMSR

14029 8058 mt 
(4) s
2022 7785 mt 2142 7785 L
%%IncludeResource: font Helvetica
/Helvetica /WindowsLatin1Encoding 120 FMSR

1921 7829 mt 
(0) s
2022 6300 mt 2142 6300 L
1821 6344 mt 
(0.5) s
2022 4815 mt 2142 4815 L
1921 4859 mt 
(1) s
2022 3329 mt 2142 3329 L
1821 3373 mt 
(1.5) s
2022 1844 mt 2142 1844 L
1921 1888 mt 
(2) s
2022  602 mt 
(x 10) s
%%IncludeResource: font Helvetica
/Helvetica /WindowsLatin1Encoding 80 FMSR

2248  528 mt 
(4) s
gs 2022 656 12052 7130 rc
12 w
0 j
4483 7191  594  594 rectstroke
1 j
gr

12 w
%%IncludeResource: font Courier-Bold
/Courier-Bold /WindowsLatin1Encoding 132 FMSR

4602 7705 mt 
(1) s
gs 2022 656 12052 7130 rc
0 j
5077 7191  594  594 rectstroke
1 j
gr

5196 7705 mt 
(2) s
gs 2022 656 12052 7130 rc
0 j
5671 7191  594  594 rectstroke
1 j
gr

5790 7705 mt 
(3) s
gs 2022 656 12052 7130 rc
0 j
6265 7191  594  594 rectstroke
1 j
gr

6384 7705 mt 
(4) s
gs 2022 656 12052 7130 rc
0 j
6859 7191  594  594 rectstroke
1 j
gr

6978 7705 mt 
(5) s
gs 2022 656 12052 7130 rc
0 j
7453 7191  594  594 rectstroke
1 j
gr

7572 7705 mt 
(6) s
gs 2022 656 12052 7130 rc
0 j
8047 7191  594  594 rectstroke
1 j
gr

8166 7705 mt 
(7) s
gs 2022 656 12052 7130 rc
0 j
8641 7191  594  594 rectstroke
1 j
gr

8760 7705 mt 
(8) s
gs 2022 656 12052 7130 rc
0 j
9235 7191  594  594 rectstroke
1 j
gr

9354 7705 mt 
(9) s
gs 2022 656 12052 7130 rc
0 j
9829 7191  594  594 rectstroke
1 j
gr

9948 7705 mt 
(10) s
gs 2022 656 12052 7130 rc
0 j
10423 7191  594  594 rectstroke
1 j
gr

10542 7705 mt 
(11) s
gs 2022 656 12052 7130 rc
0 j
11017 7191  594  594 rectstroke
1 j
gr

11136 7705 mt 
(12) s
gs 2022 656 12052 7130 rc
0 j
4483 6597  594  594 rectstroke
1 j
gr

4602 7111 mt 
(13) s
gs 2022 656 12052 7130 rc
0 j
5077 6597  594  594 rectstroke
1 j
gr

5196 7111 mt 
(14) s
gs 2022 656 12052 7130 rc
0 j
5671 6597  594  594 rectstroke
1 j
gr

5790 7111 mt 
(15) s
gs 2022 656 12052 7130 rc
0 j
6265 6597  594  594 rectstroke
1 j
gr

6384 7111 mt 
(16) s
gs 2022 656 12052 7130 rc
0 j
6859 6597  594  594 rectstroke
1 j
gr

6978 7111 mt 
(17) s
gs 2022 656 12052 7130 rc
0 j
7453 6597  594  594 rectstroke
1 j
gr

7572 7111 mt 
(18) s
gs 2022 656 12052 7130 rc
0 j
8047 6597  594  594 rectstroke
1 j
gr

8166 7111 mt 
(19) s
gs 2022 656 12052 7130 rc
0 j
8641 6597  594  594 rectstroke
1 j
gr

8760 7111 mt 
(20) s
gs 2022 656 12052 7130 rc
0 j
9235 6597  594  594 rectstroke
1 j
gr

9354 7111 mt 
(21) s
gs 2022 656 12052 7130 rc
0 j
9829 6597  594  594 rectstroke
1 j
gr

9948 7111 mt 
(22) s
gs 2022 656 12052 7130 rc
0 j
10423 6597  594  594 rectstroke
1 j
gr

10542 7111 mt 
(23) s
gs 2022 656 12052 7130 rc
0 j
11017 6597  594  594 rectstroke
1 j
gr

11136 7111 mt 
(24) s
gs 2022 656 12052 7130 rc
0 j
4483 6003  594  594 rectstroke
1 j
gr

4602 6517 mt 
(25) s
gs 2022 656 12052 7130 rc
0 j
5077 6003  594  594 rectstroke
1 j
gr

5196 6517 mt 
(26) s
gs 2022 656 12052 7130 rc
0 j
5671 6003  594  594 rectstroke
1 j
gr

5790 6517 mt 
(27) s
gs 2022 656 12052 7130 rc
0 j
6265 6003  594  594 rectstroke
1 j
gr

6384 6517 mt 
(28) s
gs 2022 656 12052 7130 rc
0 j
6859 6003  594  594 rectstroke
1 j
gr

6978 6517 mt 
(29) s
gs 2022 656 12052 7130 rc
0 j
7453 6003  594  594 rectstroke
1 j
gr

7572 6517 mt 
(30) s
gs 2022 656 12052 7130 rc
0 j
8047 6003  594  594 rectstroke
1 j
gr

8166 6517 mt 
(31) s
gs 2022 656 12052 7130 rc
0 j
8641 6003  594  594 rectstroke
1 j
gr

8760 6517 mt 
(32) s
gs 2022 656 12052 7130 rc
0 j
9235 6003  594  594 rectstroke
1 j
gr

9354 6517 mt 
(33) s
gs 2022 656 12052 7130 rc
0 j
9829 6003  594  594 rectstroke
1 j
gr

9948 6517 mt 
(34) s
gs 2022 656 12052 7130 rc
0 j
10423 6003  594  594 rectstroke
1 j
gr

10542 6517 mt 
(35) s
gs 2022 656 12052 7130 rc
0 j
11017 6003  594  594 rectstroke
1 j
gr

11136 6517 mt 
(36) s
gs 2022 656 12052 7130 rc
0 j
4483 5409  594  594 rectstroke
1 j
gr

4602 5923 mt 
(37) s
gs 2022 656 12052 7130 rc
0 j
5077 5409  594  594 rectstroke
1 j
gr

5196 5923 mt 
(38) s
gs 2022 656 12052 7130 rc
0 j
5671 5409  594  594 rectstroke
1 j
gr

5790 5923 mt 
(39) s
gs 2022 656 12052 7130 rc
0 j
6265 5409  594  594 rectstroke
1 j
gr

6384 5923 mt 
(40) s
gs 2022 656 12052 7130 rc
0 j
6859 5409  594  594 rectstroke
1 j
gr

6978 5923 mt 
(41) s
gs 2022 656 12052 7130 rc
0 j
7453 5409  594  594 rectstroke
1 j
gr

7572 5923 mt 
(42) s
gs 2022 656 12052 7130 rc
0 j
8047 5409  594  594 rectstroke
1 j
gr

8166 5923 mt 
(43) s
gs 2022 656 12052 7130 rc
0 j
8641 5409  594  594 rectstroke
1 j
gr

8760 5923 mt 
(44) s
gs 2022 656 12052 7130 rc
0 j
9235 5409  594  594 rectstroke
1 j
gr

9354 5923 mt 
(45) s
gs 2022 656 12052 7130 rc
0 j
9829 5409  594  594 rectstroke
1 j
gr

9948 5923 mt 
(46) s
gs 2022 656 12052 7130 rc
0 j
10423 5409  594  594 rectstroke
1 j
gr

10542 5923 mt 
(47) s
gs 2022 656 12052 7130 rc
0 j
11017 5409  594  594 rectstroke
1 j
gr

11136 5923 mt 
(48) s
gs 2022 656 12052 7130 rc
0 j
4483 4815  594  594 rectstroke
1 j
gr

4602 5329 mt 
(49) s
gs 2022 656 12052 7130 rc
0 j
5077 4815  594  594 rectstroke
1 j
gr

5196 5329 mt 
(50) s
gs 2022 656 12052 7130 rc
0 j
5671 4815  594  594 rectstroke
1 j
gr

5790 5329 mt 
(51) s
gs 2022 656 12052 7130 rc
0 j
6265 4815  594  594 rectstroke
1 j
gr

6384 5329 mt 
(52) s
gs 2022 656 12052 7130 rc
0 j
6859 4815  594  594 rectstroke
1 j
gr

6978 5329 mt 
(53) s
gs 2022 656 12052 7130 rc
0 j
7453 4815  594  594 rectstroke
1 j
gr

7572 5329 mt 
(54) s
gs 2022 656 12052 7130 rc
0 j
8047 4815  594  594 rectstroke
1 j
gr

8166 5329 mt 
(55) s
gs 2022 656 12052 7130 rc
0 j
8641 4815  594  594 rectstroke
1 j
gr

8760 5329 mt 
(56) s
gs 2022 656 12052 7130 rc
0 j
9235 4815  594  594 rectstroke
1 j
gr

9354 5329 mt 
(57) s
gs 2022 656 12052 7130 rc
0 j
9829 4815  594  594 rectstroke
1 j
gr

9948 5329 mt 
(58) s
gs 2022 656 12052 7130 rc
0 j
10423 4815  594  594 rectstroke
1 j
gr

10542 5329 mt 
(59) s
gs 2022 656 12052 7130 rc
0 j
11017 4815  594  594 rectstroke
1 j
gr

11136 5329 mt 
(60) s
gs 2022 656 12052 7130 rc
0 j
4483 4221  594  594 rectstroke
1 j
gr

4602 4735 mt 
(61) s
gs 2022 656 12052 7130 rc
0 j
5077 4221  594  594 rectstroke
1 j
gr

5196 4735 mt 
(62) s
gs 2022 656 12052 7130 rc
0 j
5671 4221  594  594 rectstroke
1 j
gr

5790 4735 mt 
(63) s
gs 2022 656 12052 7130 rc
0 j
6265 4221  594  594 rectstroke
1 j
gr

6384 4735 mt 
(64) s
gs 2022 656 12052 7130 rc
0 j
6859 4221  594  594 rectstroke
1 j
gr

6978 4735 mt 
(65) s
gs 2022 656 12052 7130 rc
0 j
7453 4221  594  594 rectstroke
1 j
gr

7572 4735 mt 
(66) s
gs 2022 656 12052 7130 rc
0 j
8047 4221  594  594 rectstroke
1 j
gr

8166 4735 mt 
(67) s
gs 2022 656 12052 7130 rc
0 j
8641 4221  594  594 rectstroke
1 j
gr

8760 4735 mt 
(68) s
gs 2022 656 12052 7130 rc
0 j
9235 4221  594  594 rectstroke
1 j
gr

9354 4735 mt 
(69) s
gs 2022 656 12052 7130 rc
0 j
9829 4221  594  594 rectstroke
1 j
gr

9948 4735 mt 
(70) s
gs 2022 656 12052 7130 rc
0 j
10423 4221  594  594 rectstroke
1 j
gr

10542 4735 mt 
(71) s
gs 2022 656 12052 7130 rc
0 j
11017 4221  594  594 rectstroke
1 j
gr

11136 4735 mt 
(72) s
gs 2022 656 12052 7130 rc
0 j
4483 3626  594  595 rectstroke
1 j
gr

4602 4141 mt 
(73) s
gs 2022 656 12052 7130 rc
0 j
5077 3626  594  595 rectstroke
1 j
gr

5196 4141 mt 
(74) s
gs 2022 656 12052 7130 rc
0 j
5671 3626  594  595 rectstroke
1 j
gr

5790 4141 mt 
(75) s
gs 2022 656 12052 7130 rc
0 j
6265 3626  594  595 rectstroke
1 j
gr

6384 4141 mt 
(76) s
gs 2022 656 12052 7130 rc
0 j
6859 3626  594  595 rectstroke
1 j
gr

6978 4141 mt 
(77) s
gs 2022 656 12052 7130 rc
0 j
7453 3626  594  595 rectstroke
1 j
gr

7572 4141 mt 
(78) s
gs 2022 656 12052 7130 rc
0 j
8047 3626  594  595 rectstroke
1 j
gr

8166 4141 mt 
(79) s
gs 2022 656 12052 7130 rc
0 j
8641 3626  594  595 rectstroke
1 j
gr

8760 4141 mt 
(80) s
gs 2022 656 12052 7130 rc
0 j
9235 3626  594  595 rectstroke
1 j
gr

9354 4141 mt 
(81) s
gs 2022 656 12052 7130 rc
0 j
9829 3626  594  595 rectstroke
1 j
gr

9948 4141 mt 
(82) s
gs 2022 656 12052 7130 rc
0 j
10423 3626  594  595 rectstroke
1 j
gr

10542 4141 mt 
(83) s
gs 2022 656 12052 7130 rc
0 j
11017 3626  594  595 rectstroke
1 j
gr

11136 4141 mt 
(84) s
gs 2022 656 12052 7130 rc
0 j
4483 3032  594  594 rectstroke
1 j
gr

4602 3547 mt 
(85) s
gs 2022 656 12052 7130 rc
0 j
5077 3032  594  594 rectstroke
1 j
gr

5196 3547 mt 
(86) s
gs 2022 656 12052 7130 rc
0 j
5671 3032  594  594 rectstroke
1 j
gr

5790 3547 mt 
(87) s
gs 2022 656 12052 7130 rc
0 j
6265 3032  594  594 rectstroke
1 j
gr

6384 3547 mt 
(88) s
gs 2022 656 12052 7130 rc
0 j
6859 3032  594  594 rectstroke
1 j
gr

6978 3547 mt 
(89) s
gs 2022 656 12052 7130 rc
0 j
7453 3032  594  594 rectstroke
1 j
gr

7572 3547 mt 
(90) s
gs 2022 656 12052 7130 rc
0 j
8047 3032  594  594 rectstroke
1 j
gr

8166 3547 mt 
(91) s
gs 2022 656 12052 7130 rc
0 j
8641 3032  594  594 rectstroke
1 j
gr

8760 3547 mt 
(92) s
gs 2022 656 12052 7130 rc
0 j
9235 3032  594  594 rectstroke
1 j
gr

9354 3547 mt 
(93) s
gs 2022 656 12052 7130 rc
0 j
9829 3032  594  594 rectstroke
1 j
gr

9948 3547 mt 
(94) s
gs 2022 656 12052 7130 rc
0 j
10423 3032  594  594 rectstroke
1 j
gr

10542 3547 mt 
(95) s
gs 2022 656 12052 7130 rc
0 j
11017 3032  594  594 rectstroke
1 j
gr

11136 3547 mt 
(96) s
gs 2022 656 12052 7130 rc
0 j
4483 2438  594  594 rectstroke
1 j
gr

4602 2953 mt 
(97) s
gs 2022 656 12052 7130 rc
0 j
5077 2438  594  594 rectstroke
1 j
gr

5196 2953 mt 
(98) s
gs 2022 656 12052 7130 rc
0 j
5671 2438  594  594 rectstroke
1 j
gr

5790 2953 mt 
(99) s
gs 2022 656 12052 7130 rc
0 j
6265 2438  594  594 rectstroke
1 j
gr

6384 2953 mt 
(100) s
gs 2022 656 12052 7130 rc
0 j
6859 2438  594  594 rectstroke
1 j
gr

6978 2953 mt 
(101) s
gs 2022 656 12052 7130 rc
0 j
7453 2438  594  594 rectstroke
1 j
gr

7572 2953 mt 
(102) s
gs 2022 656 12052 7130 rc
0 j
8047 2438  594  594 rectstroke
1 j
gr

8166 2953 mt 
(103) s
gs 2022 656 12052 7130 rc
0 j
8641 2438  594  594 rectstroke
1 j
gr

8760 2953 mt 
(104) s
gs 2022 656 12052 7130 rc
0 j
9235 2438  594  594 rectstroke
1 j
gr

9354 2953 mt 
(105) s
gs 2022 656 12052 7130 rc
0 j
9829 2438  594  594 rectstroke
1 j
gr

9948 2953 mt 
(106) s
gs 2022 656 12052 7130 rc
0 j
10423 2438  594  594 rectstroke
1 j
gr

10542 2953 mt 
(107) s
gs 2022 656 12052 7130 rc
0 j
11017 2438  594  594 rectstroke
1 j
gr

11136 2953 mt 
(108) s
gs 2022 656 12052 7130 rc
0 j
4483 1844  594  594 rectstroke
1 j
gr

4602 2359 mt 
(109) s
gs 2022 656 12052 7130 rc
0 j
5077 1844  594  594 rectstroke
1 j
gr

5196 2359 mt 
(110) s
gs 2022 656 12052 7130 rc
0 j
5671 1844  594  594 rectstroke
1 j
gr

5790 2359 mt 
(111) s
gs 2022 656 12052 7130 rc
0 j
6265 1844  594  594 rectstroke
1 j
gr

6384 2359 mt 
(112) s
gs 2022 656 12052 7130 rc
0 j
6859 1844  594  594 rectstroke
1 j
gr

6978 2359 mt 
(113) s
gs 2022 656 12052 7130 rc
0 j
7453 1844  594  594 rectstroke
1 j
gr

7572 2359 mt 
(114) s
gs 2022 656 12052 7130 rc
0 j
8047 1844  594  594 rectstroke
1 j
gr

8166 2359 mt 
(115) s
gs 2022 656 12052 7130 rc
0 j
8641 1844  594  594 rectstroke
1 j
gr

8760 2359 mt 
(116) s
gs 2022 656 12052 7130 rc
0 j
9235 1844  594  594 rectstroke
1 j
gr

9354 2359 mt 
(117) s
gs 2022 656 12052 7130 rc
0 j
9829 1844  594  594 rectstroke
1 j
gr

9948 2359 mt 
(118) s
gs 2022 656 12052 7130 rc
0 j
10423 1844  594  594 rectstroke
1 j
gr

10542 2359 mt 
(119) s
gs 2022 656 12052 7130 rc
0 j
11017 1844  594  594 rectstroke
1 j
gr

11136 2359 mt 
(120) s
gs 2022 656 12052 7130 rc
0 j
4483 1250  594  594 rectstroke
1 j
gr

4602 1765 mt 
(121) s
gs 2022 656 12052 7130 rc
0 j
5077 1250  594  594 rectstroke
1 j
gr

5196 1765 mt 
(122) s
gs 2022 656 12052 7130 rc
0 j
5671 1250  594  594 rectstroke
1 j
gr

5790 1765 mt 
(123) s
gs 2022 656 12052 7130 rc
0 j
6265 1250  594  594 rectstroke
1 j
gr

6384 1765 mt 
(124) s
gs 2022 656 12052 7130 rc
0 j
6859 1250  594  594 rectstroke
1 j
gr

6978 1765 mt 
(125) s
gs 2022 656 12052 7130 rc
0 j
7453 1250  594  594 rectstroke
1 j
gr

7572 1765 mt 
(126) s
gs 2022 656 12052 7130 rc
0 j
8047 1250  594  594 rectstroke
1 j
gr

8166 1765 mt 
(127) s
gs 2022 656 12052 7130 rc
0 j
8641 1250  594  594 rectstroke
1 j
gr

8760 1765 mt 
(128) s
gs 2022 656 12052 7130 rc
0 j
9235 1250  594  594 rectstroke
1 j
gr

9354 1765 mt 
(129) s
gs 2022 656 12052 7130 rc
0 j
9829 1250  594  594 rectstroke
1 j
gr

9948 1765 mt 
(130) s
gs 2022 656 12052 7130 rc
0 j
10423 1250  594  594 rectstroke
1 j
gr

10542 1765 mt 
(131) s
gs 2022 656 12052 7130 rc
0 j
11017 1250  594  594 rectstroke
1 j
gr

11136 1765 mt 
(132) s
gs 2022 656 12052 7130 rc
0 j
gr
4483  656  594  594 rectstroke
gs 2022 656 12052 7130 rc
1 j
gr

4602 1170 mt 
(133) s
gs 2022 656 12052 7130 rc
0 j
gr
5077  656  594  594 rectstroke
gs 2022 656 12052 7130 rc
1 j
gr

5196 1170 mt 
(134) s
gs 2022 656 12052 7130 rc
0 j
gr
5671  656  594  594 rectstroke
gs 2022 656 12052 7130 rc
1 j
gr

5790 1170 mt 
(135) s
gs 2022 656 12052 7130 rc
0 j
gr
6265  656  594  594 rectstroke
gs 2022 656 12052 7130 rc
1 j
gr

6384 1170 mt 
(136) s
gs 2022 656 12052 7130 rc
0 j
gr
6859  656  594  594 rectstroke
gs 2022 656 12052 7130 rc
1 j
gr

6978 1170 mt 
(137) s
gs 2022 656 12052 7130 rc
0 j
gr
7453  656  594  594 rectstroke
gs 2022 656 12052 7130 rc
1 j
gr

7572 1170 mt 
(138) s
gs 2022 656 12052 7130 rc
0 j
gr
8047  656  594  594 rectstroke
gs 2022 656 12052 7130 rc
1 j
gr

8166 1170 mt 
(139) s
gs 2022 656 12052 7130 rc
0 j
gr
8641  656  594  594 rectstroke
gs 2022 656 12052 7130 rc
1 j
gr

8760 1170 mt 
(140) s
gs 2022 656 12052 7130 rc
0 j
gr
9235  656  594  594 rectstroke
gs 2022 656 12052 7130 rc
1 j
gr

9354 1170 mt 
(141) s
gs 2022 656 12052 7130 rc
0 j
gr
9829  656  594  594 rectstroke
gs 2022 656 12052 7130 rc
1 j
gr

9948 1170 mt 
(142) s
gs 2022 656 12052 7130 rc
0 j
gr
10423  656  594  594 rectstroke
gs 2022 656 12052 7130 rc
1 j
gr

10542 1170 mt 
(143) s
gs 2022 656 12052 7130 rc
0 j
gr
11017  656  594  594 rectstroke
gs 2022 656 12052 7130 rc
1 j
gr

11136 1170 mt 
(144) s
gs 2022 656 12052 7130 rc
0 j
/c8 { 0.000000 0.400000 0.250000 sr} bdef
c8
4483 7191  594  594 rf
0 sg
4483 7191  594  594 rectstroke
1 j
gr

4602 7705 mt 
(1) s
gs 2022 656 12052 7130 rc
24 w
0 j
/c9 { 0.800000 0.150000 0.150000 sr} bdef
c9
5077  656  594  594 rf
gr
0 sg
5077  656  594  594 rectstroke
gs 2022 656 12052 7130 rc
1 j
gr

24 w
5196 1170 mt 
(134) s
gs 2022 656 12052 7130 rc
12 w
0 j
/c10 { 0.400000 0.400000 0.200000 sr} bdef
c10
5671 4221  594  594 rf
0 sg
5671 4221  594  594 rectstroke
1 j
gr

12 w
5790 4735 mt 
(63) s
gs 2022 656 12052 7130 rc
0 j
c10
6265 4221  594  594 rf
0 sg
6265 4221  594  594 rectstroke
1 j
gr

6384 4735 mt 
(64) s
gs 2022 656 12052 7130 rc
0 j
c10
6859 4221  594  594 rf
0 sg
6859 4221  594  594 rectstroke
1 j
gr

6978 4735 mt 
(65) s
gs 2022 656 12052 7130 rc
0 j
c10
7453 4221  594  594 rf
0 sg
7453 4221  594  594 rectstroke
1 j
gr

7572 4735 mt 
(66) s
gs 2022 656 12052 7130 rc
0 j
c10
8047 4221  594  594 rf
0 sg
8047 4221  594  594 rectstroke
1 j
gr

8166 4735 mt 
(67) s
gs 2022 656 12052 7130 rc
0 j
c10
5671 3626  594  595 rf
0 sg
5671 3626  594  595 rectstroke
1 j
gr

5790 4141 mt 
(75) s
gs 2022 656 12052 7130 rc
0 j
c10
5671 3032  594  594 rf
0 sg
5671 3032  594  594 rectstroke
1 j
gr

5790 3547 mt 
(87) s
gs 2022 656 12052 7130 rc
0 j
c10
5671 2438  594  594 rf
0 sg
5671 2438  594  594 rectstroke
1 j
gr

5790 2953 mt 
(99) s
gs 2022 656 12052 7130 rc
0 j
c10
5671 1844  594  594 rf
0 sg
5671 1844  594  594 rectstroke
1 j
gr

5790 2359 mt 
(111) s
gs 2022 656 12052 7130 rc
0 j
c10
5671 1250  594  594 rf
0 sg
5671 1250  594  594 rectstroke
1 j
gr

5790 1765 mt 
(123) s
gs 2022 656 12052 7130 rc
0 j
c10
5671  656  594  594 rf
gr
0 sg
5671  656  594  594 rectstroke
gs 2022 656 12052 7130 rc
1 j
gr

5790 1170 mt 
(135) s
gs 2022 656 12052 7130 rc
0 j
c10
8047 1844  594  594 rf
0 sg
8047 1844  594  594 rectstroke
1 j
gr

8166 2359 mt 
(115) s
gs 2022 656 12052 7130 rc
0 j
c10
8641 1844  594  594 rf
0 sg
8641 1844  594  594 rectstroke
1 j
gr

8760 2359 mt 
(116) s
gs 2022 656 12052 7130 rc
0 j
c10
9235 1844  594  594 rf
0 sg
9235 1844  594  594 rectstroke
1 j
gr

9354 2359 mt 
(117) s
gs 2022 656 12052 7130 rc
0 j
c10
9829 1844  594  594 rf
0 sg
9829 1844  594  594 rectstroke
1 j
gr

9948 2359 mt 
(118) s
gs 2022 656 12052 7130 rc
0 j
c10
9829 6003  594  594 rf
0 sg
9829 6003  594  594 rectstroke
1 j
gr

9948 6517 mt 
(34) s
gs 2022 656 12052 7130 rc
0 j
c10
9829 5409  594  594 rf
0 sg
9829 5409  594  594 rectstroke
1 j
gr

9948 5923 mt 
(46) s
gs 2022 656 12052 7130 rc
0 j
/c11 { 1.000000 1.000000 0.200000 sr} bdef
c11
11017 6003  594  594 rf
0 sg
11017 6003  594  594 rectstroke
1 j
gr

11136 6517 mt 
(36) s
gs 2022 656 12052 7130 rc
0 j
c11
10423 6003  594  594 rf
0 sg
10423 6003  594  594 rectstroke
1 j
gr

10542 6517 mt 
(35) s
gs 2022 656 12052 7130 rc
0 j
c11
11017 5409  594  594 rf
0 sg
11017 5409  594  594 rectstroke
1 j
gr

11136 5923 mt 
(48) s
gs 2022 656 12052 7130 rc
0 j
c11
10423 5409  594  594 rf
0 sg
10423 5409  594  594 rectstroke
1 j
gr

10542 5923 mt 
(47) s
gs 2022 656 12052 7130 rc
0 j
c11
10423 1250  594  594 rf
0 sg
10423 1250  594  594 rectstroke
1 j
gr

10542 1765 mt 
(131) s
gs 2022 656 12052 7130 rc
0 j
c11
11017 1250  594  594 rf
0 sg
11017 1250  594  594 rectstroke
1 j
gr

11136 1765 mt 
(132) s
gs 2022 656 12052 7130 rc
0 j
c11
10423  656  594  594 rf
gr
0 sg
10423  656  594  594 rectstroke
gs 2022 656 12052 7130 rc
1 j
gr

10542 1170 mt 
(143) s
gs 2022 656 12052 7130 rc
0 j
c11
11017  656  594  594 rf
gr
0 sg
11017  656  594  594 rectstroke
gs 2022 656 12052 7130 rc
1 j
gr

11136 1170 mt 
(144) s
gs 2022 656 12052 7130 rc
0 j
c11
6859 1844  594  594 rf
0 sg
6859 1844  594  594 rectstroke
1 j
gr

6978 2359 mt 
(113) s
gs 2022 656 12052 7130 rc
0 j
c11
7453 1844  594  594 rf
0 sg
7453 1844  594  594 rectstroke
1 j
gr

7572 2359 mt 
(114) s
gs 2022 656 12052 7130 rc
0 j
c11
6859 2438  594  594 rf
0 sg
6859 2438  594  594 rectstroke
1 j
gr

6978 2953 mt 
(101) s
gs 2022 656 12052 7130 rc
0 j
c11
7453 2438  594  594 rf
0 sg
7453 2438  594  594 rectstroke
1 j
gr

7572 2953 mt 
(102) s
gs 2022 656 12052 7130 rc
0 j
c11
4483 1250  594  594 rf
0 sg
4483 1250  594  594 rectstroke
1 j
gr

4602 1765 mt 
(121) s
gs 2022 656 12052 7130 rc
0 j
c11
5077 1250  594  594 rf
0 sg
5077 1250  594  594 rectstroke
1 j
gr

5196 1765 mt 
(122) s
gs 2022 656 12052 7130 rc
0 j
c11
4483  656  594  594 rf
gr
0 sg
4483  656  594  594 rectstroke
gs 2022 656 12052 7130 rc
1 j
gr

4602 1170 mt 
(133) s
gs 2022 656 12052 7130 rc
0 j
c11
5077  656  594  594 rf
gr
0 sg
5077  656  594  594 rectstroke
gs 2022 656 12052 7130 rc
1 j
gr

5196 1170 mt 
(134) s
gs 2022 656 12052 7130 rc
0 j
/c12 { 0.100000 0.900000 0.200000 sr} bdef
c12
4483 7191  594  594 rf
0 sg
4483 7191  594  594 rectstroke
1 j
gr

4602 7705 mt 
(1) s
gs 2022 656 12052 7130 rc
0 j
c12
5077 7191  594  594 rf
0 sg
5077 7191  594  594 rectstroke
1 j
gr

5196 7705 mt 
(2) s
gs 2022 656 12052 7130 rc
0 j
c12
5671 7191  594  594 rf
0 sg
5671 7191  594  594 rectstroke
1 j
gr

5790 7705 mt 
(3) s
gs 2022 656 12052 7130 rc
0 j
c12
5077 7191  594  594 rf
0 sg
5077 7191  594  594 rectstroke
1 j
gr

5196 7705 mt 
(2) s
gs 2022 656 12052 7130 rc
0 j
c12
5671 7191  594  594 rf
0 sg
5671 7191  594  594 rectstroke
1 j
gr

5790 7705 mt 
(3) s
gs 2022 656 12052 7130 rc
0 j
c12
6265 7191  594  594 rf
0 sg
6265 7191  594  594 rectstroke
1 j
gr

6384 7705 mt 
(4) s
gs 2022 656 12052 7130 rc
0 j
c12
5671 7191  594  594 rf
0 sg
5671 7191  594  594 rectstroke
1 j
gr

5790 7705 mt 
(3) s
gs 2022 656 12052 7130 rc
0 j
c12
6265 7191  594  594 rf
0 sg
6265 7191  594  594 rectstroke
1 j
gr

6384 7705 mt 
(4) s
gs 2022 656 12052 7130 rc
0 j
c12
6859 7191  594  594 rf
0 sg
6859 7191  594  594 rectstroke
1 j
gr

6978 7705 mt 
(5) s
gs 2022 656 12052 7130 rc
0 j
c12
6265 7191  594  594 rf
0 sg
6265 7191  594  594 rectstroke
1 j
gr

6384 7705 mt 
(4) s
gs 2022 656 12052 7130 rc
0 j
c12
6859 7191  594  594 rf
0 sg
6859 7191  594  594 rectstroke
1 j
gr

6978 7705 mt 
(5) s
gs 2022 656 12052 7130 rc
0 j
c12
7453 7191  594  594 rf
0 sg
7453 7191  594  594 rectstroke
1 j
gr

7572 7705 mt 
(6) s
gs 2022 656 12052 7130 rc
0 j
c12
6859 7191  594  594 rf
0 sg
6859 7191  594  594 rectstroke
1 j
gr

6978 7705 mt 
(5) s
gs 2022 656 12052 7130 rc
0 j
c12
7453 7191  594  594 rf
0 sg
7453 7191  594  594 rectstroke
1 j
gr

7572 7705 mt 
(6) s
gs 2022 656 12052 7130 rc
0 j
c12
8047 7191  594  594 rf
0 sg
8047 7191  594  594 rectstroke
1 j
gr

8166 7705 mt 
(7) s
gs 2022 656 12052 7130 rc
0 j
c12
7453 7191  594  594 rf
0 sg
7453 7191  594  594 rectstroke
1 j
gr

7572 7705 mt 
(6) s
gs 2022 656 12052 7130 rc
0 j
c12
8047 7191  594  594 rf
0 sg
8047 7191  594  594 rectstroke
1 j
gr

8166 7705 mt 
(7) s
gs 2022 656 12052 7130 rc
0 j
c12
8641 7191  594  594 rf
0 sg
8641 7191  594  594 rectstroke
1 j
gr

8760 7705 mt 
(8) s
gs 2022 656 12052 7130 rc
0 j
c12
8047 7191  594  594 rf
0 sg
8047 7191  594  594 rectstroke
1 j
gr

8166 7705 mt 
(7) s
gs 2022 656 12052 7130 rc
0 j
c12
8641 7191  594  594 rf
0 sg
8641 7191  594  594 rectstroke
1 j
gr

8760 7705 mt 
(8) s
gs 2022 656 12052 7130 rc
0 j
c12
9235 7191  594  594 rf
0 sg
9235 7191  594  594 rectstroke
1 j
gr

9354 7705 mt 
(9) s
gs 2022 656 12052 7130 rc
0 j
c12
8641 7191  594  594 rf
0 sg
8641 7191  594  594 rectstroke
1 j
gr

8760 7705 mt 
(8) s
gs 2022 656 12052 7130 rc
0 j
c12
9235 7191  594  594 rf
0 sg
9235 7191  594  594 rectstroke
1 j
gr

9354 7705 mt 
(9) s
gs 2022 656 12052 7130 rc
0 j
c12
9829 7191  594  594 rf
0 sg
9829 7191  594  594 rectstroke
1 j
gr

9948 7705 mt 
(10) s
gs 2022 656 12052 7130 rc
0 j
c12
9235 7191  594  594 rf
0 sg
9235 7191  594  594 rectstroke
1 j
gr

9354 7705 mt 
(9) s
gs 2022 656 12052 7130 rc
0 j
c12
9829 7191  594  594 rf
0 sg
9829 7191  594  594 rectstroke
1 j
gr

9948 7705 mt 
(10) s
gs 2022 656 12052 7130 rc
0 j
c12
9829 6597  594  594 rf
0 sg
9829 6597  594  594 rectstroke
1 j
gr

9948 7111 mt 
(22) s
gs 2022 656 12052 7130 rc
0 j
c12
9829 7191  594  594 rf
0 sg
9829 7191  594  594 rectstroke
1 j
gr

9948 7705 mt 
(10) s
gs 2022 656 12052 7130 rc
0 j
c12
9829 6597  594  594 rf
0 sg
9829 6597  594  594 rectstroke
1 j
gr

9948 7111 mt 
(22) s
gs 2022 656 12052 7130 rc
0 j
c12
10423 6597  594  594 rf
0 sg
10423 6597  594  594 rectstroke
1 j
gr

10542 7111 mt 
(23) s
gs 2022 656 12052 7130 rc
0 j
c12
9829 6597  594  594 rf
0 sg
9829 6597  594  594 rectstroke
1 j
gr

9948 7111 mt 
(22) s
gs 2022 656 12052 7130 rc
0 j
c12
10423 6597  594  594 rf
0 sg
10423 6597  594  594 rectstroke
1 j
gr

10542 7111 mt 
(23) s
gs 2022 656 12052 7130 rc
0 j
c12
10423 6003  594  594 rf
0 sg
10423 6003  594  594 rectstroke
1 j
gr

10542 6517 mt 
(35) s
gs 2022 656 12052 7130 rc
0 j
c12
10423 6597  594  594 rf
0 sg
10423 6597  594  594 rectstroke
1 j
gr

10542 7111 mt 
(23) s
gs 2022 656 12052 7130 rc
0 j
c12
10423 6003  594  594 rf
0 sg
10423 6003  594  594 rectstroke
1 j
gr

10542 6517 mt 
(35) s
gs 2022 656 12052 7130 rc
0 j
c12
10423 5409  594  594 rf
0 sg
10423 5409  594  594 rectstroke
1 j
gr

10542 5923 mt 
(47) s
gs 2022 656 12052 7130 rc
0 j
c12
10423 6003  594  594 rf
0 sg
10423 6003  594  594 rectstroke
1 j
gr

10542 6517 mt 
(35) s
gs 2022 656 12052 7130 rc
0 j
c12
10423 5409  594  594 rf
0 sg
10423 5409  594  594 rectstroke
1 j
gr

10542 5923 mt 
(47) s
gs 2022 656 12052 7130 rc
0 j
c12
10423 4815  594  594 rf
0 sg
10423 4815  594  594 rectstroke
1 j
gr

10542 5329 mt 
(59) s
gs 2022 656 12052 7130 rc
0 j
c12
10423 5409  594  594 rf
0 sg
10423 5409  594  594 rectstroke
1 j
gr

10542 5923 mt 
(47) s
gs 2022 656 12052 7130 rc
0 j
c12
10423 4815  594  594 rf
0 sg
10423 4815  594  594 rectstroke
1 j
gr

10542 5329 mt 
(59) s
gs 2022 656 12052 7130 rc
0 j
c12
10423 4221  594  594 rf
0 sg
10423 4221  594  594 rectstroke
1 j
gr

10542 4735 mt 
(71) s
gs 2022 656 12052 7130 rc
0 j
c12
10423 4815  594  594 rf
0 sg
10423 4815  594  594 rectstroke
1 j
gr

10542 5329 mt 
(59) s
gs 2022 656 12052 7130 rc
0 j
c12
10423 4221  594  594 rf
0 sg
10423 4221  594  594 rectstroke
1 j
gr

10542 4735 mt 
(71) s
gs 2022 656 12052 7130 rc
0 j
c12
10423 3626  594  595 rf
0 sg
10423 3626  594  595 rectstroke
1 j
gr

10542 4141 mt 
(83) s
gs 2022 656 12052 7130 rc
0 j
c12
10423 4221  594  594 rf
0 sg
10423 4221  594  594 rectstroke
1 j
gr

10542 4735 mt 
(71) s
gs 2022 656 12052 7130 rc
0 j
c12
10423 3626  594  595 rf
0 sg
10423 3626  594  595 rectstroke
1 j
gr

10542 4141 mt 
(83) s
gs 2022 656 12052 7130 rc
0 j
c12
10423 3032  594  594 rf
0 sg
10423 3032  594  594 rectstroke
1 j
gr

10542 3547 mt 
(95) s
gs 2022 656 12052 7130 rc
0 j
c12
10423 3626  594  595 rf
0 sg
10423 3626  594  595 rectstroke
1 j
gr

10542 4141 mt 
(83) s
gs 2022 656 12052 7130 rc
0 j
c12
10423 3032  594  594 rf
0 sg
10423 3032  594  594 rectstroke
1 j
gr

10542 3547 mt 
(95) s
gs 2022 656 12052 7130 rc
0 j
c12
10423 2438  594  594 rf
0 sg
10423 2438  594  594 rectstroke
1 j
gr

10542 2953 mt 
(107) s
gs 2022 656 12052 7130 rc
0 j
c12
10423 3032  594  594 rf
0 sg
10423 3032  594  594 rectstroke
1 j
gr

10542 3547 mt 
(95) s
gs 2022 656 12052 7130 rc
0 j
c12
10423 2438  594  594 rf
0 sg
10423 2438  594  594 rectstroke
1 j
gr

10542 2953 mt 
(107) s
gs 2022 656 12052 7130 rc
0 j
c12
10423 1844  594  594 rf
0 sg
10423 1844  594  594 rectstroke
1 j
gr

10542 2359 mt 
(119) s
gs 2022 656 12052 7130 rc
0 j
c12
10423 2438  594  594 rf
0 sg
10423 2438  594  594 rectstroke
1 j
gr

10542 2953 mt 
(107) s
gs 2022 656 12052 7130 rc
0 j
c12
10423 1844  594  594 rf
0 sg
10423 1844  594  594 rectstroke
1 j
gr

10542 2359 mt 
(119) s
gs 2022 656 12052 7130 rc
0 j
c12
10423 1250  594  594 rf
0 sg
10423 1250  594  594 rectstroke
1 j
gr

10542 1765 mt 
(131) s
gs 2022 656 12052 7130 rc
0 j
c12
10423 1844  594  594 rf
0 sg
10423 1844  594  594 rectstroke
1 j
gr

10542 2359 mt 
(119) s
gs 2022 656 12052 7130 rc
0 j
c12
10423 1250  594  594 rf
0 sg
10423 1250  594  594 rectstroke
1 j
gr

10542 1765 mt 
(131) s
gs 2022 656 12052 7130 rc
0 j
c12
9829 1250  594  594 rf
0 sg
9829 1250  594  594 rectstroke
1 j
gr

9948 1765 mt 
(130) s
gs 2022 656 12052 7130 rc
0 j
c12
10423 1250  594  594 rf
0 sg
10423 1250  594  594 rectstroke
1 j
gr

10542 1765 mt 
(131) s
gs 2022 656 12052 7130 rc
0 j
c12
9829 1250  594  594 rf
0 sg
9829 1250  594  594 rectstroke
1 j
gr

9948 1765 mt 
(130) s
gs 2022 656 12052 7130 rc
0 j
c12
9235 1250  594  594 rf
0 sg
9235 1250  594  594 rectstroke
1 j
gr

9354 1765 mt 
(129) s
gs 2022 656 12052 7130 rc
0 j
c12
9829 1250  594  594 rf
0 sg
9829 1250  594  594 rectstroke
1 j
gr

9948 1765 mt 
(130) s
gs 2022 656 12052 7130 rc
0 j
c12
9235 1250  594  594 rf
0 sg
9235 1250  594  594 rectstroke
1 j
gr

9354 1765 mt 
(129) s
gs 2022 656 12052 7130 rc
0 j
c12
8641 1250  594  594 rf
0 sg
8641 1250  594  594 rectstroke
1 j
gr

8760 1765 mt 
(128) s
gs 2022 656 12052 7130 rc
0 j
c12
9235 1250  594  594 rf
0 sg
9235 1250  594  594 rectstroke
1 j
gr

9354 1765 mt 
(129) s
gs 2022 656 12052 7130 rc
0 j
c12
8641 1250  594  594 rf
0 sg
8641 1250  594  594 rectstroke
1 j
gr

8760 1765 mt 
(128) s
gs 2022 656 12052 7130 rc
0 j
c12
8047 1250  594  594 rf
0 sg
8047 1250  594  594 rectstroke
1 j
gr

8166 1765 mt 
(127) s
gs 2022 656 12052 7130 rc
0 j
c12
8641 1250  594  594 rf
0 sg
8641 1250  594  594 rectstroke
1 j
gr

8760 1765 mt 
(128) s
gs 2022 656 12052 7130 rc
0 j
c12
8047 1250  594  594 rf
0 sg
8047 1250  594  594 rectstroke
1 j
gr

8166 1765 mt 
(127) s
gs 2022 656 12052 7130 rc
0 j
c12
7453 1250  594  594 rf
0 sg
7453 1250  594  594 rectstroke
1 j
gr

7572 1765 mt 
(126) s
gs 2022 656 12052 7130 rc
0 j
c12
8047 1250  594  594 rf
0 sg
8047 1250  594  594 rectstroke
1 j
gr

8166 1765 mt 
(127) s
gs 2022 656 12052 7130 rc
0 j
c12
7453 1250  594  594 rf
0 sg
7453 1250  594  594 rectstroke
1 j
gr

7572 1765 mt 
(126) s
gs 2022 656 12052 7130 rc
0 j
c12
7453 1844  594  594 rf
0 sg
7453 1844  594  594 rectstroke
1 j
gr

7572 2359 mt 
(114) s
gs 2022 656 12052 7130 rc
0 j
c12
7453 1250  594  594 rf
0 sg
7453 1250  594  594 rectstroke
1 j
gr

7572 1765 mt 
(126) s
gs 2022 656 12052 7130 rc
0 j
c12
7453 1844  594  594 rf
0 sg
7453 1844  594  594 rectstroke
1 j
gr

7572 2359 mt 
(114) s
gs 2022 656 12052 7130 rc
0 j
c12
7453 2438  594  594 rf
0 sg
7453 2438  594  594 rectstroke
1 j
gr

7572 2953 mt 
(102) s
gs 2022 656 12052 7130 rc
0 j
c12
7453 1844  594  594 rf
0 sg
7453 1844  594  594 rectstroke
1 j
gr

7572 2359 mt 
(114) s
gs 2022 656 12052 7130 rc
0 j
c12
7453 2438  594  594 rf
0 sg
7453 2438  594  594 rectstroke
1 j
gr

7572 2953 mt 
(102) s
gs 2022 656 12052 7130 rc
0 j
c12
7453 3032  594  594 rf
0 sg
7453 3032  594  594 rectstroke
1 j
gr

7572 3547 mt 
(90) s
gs 2022 656 12052 7130 rc
0 j
c12
7453 2438  594  594 rf
0 sg
7453 2438  594  594 rectstroke
1 j
gr

7572 2953 mt 
(102) s
gs 2022 656 12052 7130 rc
0 j
c12
7453 3032  594  594 rf
0 sg
7453 3032  594  594 rectstroke
1 j
gr

7572 3547 mt 
(90) s
gs 2022 656 12052 7130 rc
0 j
c12
8047 3032  594  594 rf
0 sg
8047 3032  594  594 rectstroke
1 j
gr

8166 3547 mt 
(91) s
gs 2022 656 12052 7130 rc
0 j
c12
7453 3032  594  594 rf
0 sg
7453 3032  594  594 rectstroke
1 j
gr

7572 3547 mt 
(90) s
gs 2022 656 12052 7130 rc
0 j
c12
8047 3032  594  594 rf
0 sg
8047 3032  594  594 rectstroke
1 j
gr

8166 3547 mt 
(91) s
gs 2022 656 12052 7130 rc
0 j
c12
8047 3626  594  595 rf
0 sg
8047 3626  594  595 rectstroke
1 j
gr

8166 4141 mt 
(79) s
gs 2022 656 12052 7130 rc
0 j
c12
8047 3032  594  594 rf
0 sg
8047 3032  594  594 rectstroke
1 j
gr

8166 3547 mt 
(91) s
gs 2022 656 12052 7130 rc
0 j
c12
8047 3626  594  595 rf
0 sg
8047 3626  594  595 rectstroke
1 j
gr

8166 4141 mt 
(79) s
gs 2022 656 12052 7130 rc
0 j
c12
8641 3626  594  595 rf
0 sg
8641 3626  594  595 rectstroke
1 j
gr

8760 4141 mt 
(80) s
gs 2022 656 12052 7130 rc
0 j
c12
8047 3626  594  595 rf
0 sg
8047 3626  594  595 rectstroke
1 j
gr

8166 4141 mt 
(79) s
gs 2022 656 12052 7130 rc
0 j
c12
8641 3626  594  595 rf
0 sg
8641 3626  594  595 rectstroke
1 j
gr

8760 4141 mt 
(80) s
gs 2022 656 12052 7130 rc
0 j
c12
8641 4221  594  594 rf
0 sg
8641 4221  594  594 rectstroke
1 j
gr

8760 4735 mt 
(68) s
gs 2022 656 12052 7130 rc
0 j
c12
8641 3626  594  595 rf
0 sg
8641 3626  594  595 rectstroke
1 j
gr

8760 4141 mt 
(80) s
gs 2022 656 12052 7130 rc
0 j
c12
8641 4221  594  594 rf
0 sg
8641 4221  594  594 rectstroke
1 j
gr

8760 4735 mt 
(68) s
gs 2022 656 12052 7130 rc
0 j
c12
8641 4815  594  594 rf
0 sg
8641 4815  594  594 rectstroke
1 j
gr

8760 5329 mt 
(56) s
gs 2022 656 12052 7130 rc
0 j
c12
8641 4221  594  594 rf
0 sg
8641 4221  594  594 rectstroke
1 j
gr

8760 4735 mt 
(68) s
gs 2022 656 12052 7130 rc
0 j
c12
8641 4815  594  594 rf
0 sg
8641 4815  594  594 rectstroke
1 j
gr

8760 5329 mt 
(56) s
gs 2022 656 12052 7130 rc
0 j
c12
8047 4815  594  594 rf
0 sg
8047 4815  594  594 rectstroke
1 j
gr

8166 5329 mt 
(55) s
gs 2022 656 12052 7130 rc
0 j
c12
8641 4815  594  594 rf
0 sg
8641 4815  594  594 rectstroke
1 j
gr

8760 5329 mt 
(56) s
gs 2022 656 12052 7130 rc
0 j
c12
8047 4815  594  594 rf
0 sg
8047 4815  594  594 rectstroke
1 j
gr

8166 5329 mt 
(55) s
gs 2022 656 12052 7130 rc
0 j
c12
8047 5409  594  594 rf
0 sg
8047 5409  594  594 rectstroke
1 j
gr

8166 5923 mt 
(43) s
gs 2022 656 12052 7130 rc
0 j
c12
8047 4815  594  594 rf
0 sg
8047 4815  594  594 rectstroke
1 j
gr

8166 5329 mt 
(55) s
gs 2022 656 12052 7130 rc
0 j
c12
8047 5409  594  594 rf
0 sg
8047 5409  594  594 rectstroke
1 j
gr

8166 5923 mt 
(43) s
gs 2022 656 12052 7130 rc
0 j
c12
7453 5409  594  594 rf
0 sg
7453 5409  594  594 rectstroke
1 j
gr

7572 5923 mt 
(42) s
gs 2022 656 12052 7130 rc
0 j
c12
8047 5409  594  594 rf
0 sg
8047 5409  594  594 rectstroke
1 j
gr

8166 5923 mt 
(43) s
gs 2022 656 12052 7130 rc
0 j
c12
7453 5409  594  594 rf
0 sg
7453 5409  594  594 rectstroke
1 j
gr

7572 5923 mt 
(42) s
gs 2022 656 12052 7130 rc
0 j
c12
6859 5409  594  594 rf
0 sg
6859 5409  594  594 rectstroke
1 j
gr

6978 5923 mt 
(41) s
gs 2022 656 12052 7130 rc
0 j
c12
7453 5409  594  594 rf
0 sg
7453 5409  594  594 rectstroke
1 j
gr

7572 5923 mt 
(42) s
gs 2022 656 12052 7130 rc
0 j
c12
6859 5409  594  594 rf
0 sg
6859 5409  594  594 rectstroke
1 j
gr

6978 5923 mt 
(41) s
gs 2022 656 12052 7130 rc
0 j
c12
6265 5409  594  594 rf
0 sg
6265 5409  594  594 rectstroke
1 j
gr

6384 5923 mt 
(40) s
gs 2022 656 12052 7130 rc
0 j
c12
6859 5409  594  594 rf
0 sg
6859 5409  594  594 rectstroke
1 j
gr

6978 5923 mt 
(41) s
gs 2022 656 12052 7130 rc
0 j
c12
6265 5409  594  594 rf
0 sg
6265 5409  594  594 rectstroke
1 j
gr

6384 5923 mt 
(40) s
gs 2022 656 12052 7130 rc
0 j
c12
5671 5409  594  594 rf
0 sg
5671 5409  594  594 rectstroke
1 j
gr

5790 5923 mt 
(39) s
gs 2022 656 12052 7130 rc
0 j
c12
6265 5409  594  594 rf
0 sg
6265 5409  594  594 rectstroke
1 j
gr

6384 5923 mt 
(40) s
gs 2022 656 12052 7130 rc
0 j
c12
5671 5409  594  594 rf
0 sg
5671 5409  594  594 rectstroke
1 j
gr

5790 5923 mt 
(39) s
gs 2022 656 12052 7130 rc
0 j
c12
5671 4815  594  594 rf
0 sg
5671 4815  594  594 rectstroke
1 j
gr

5790 5329 mt 
(51) s
gs 2022 656 12052 7130 rc
0 j
c12
5671 5409  594  594 rf
0 sg
5671 5409  594  594 rectstroke
1 j
gr

5790 5923 mt 
(39) s
gs 2022 656 12052 7130 rc
0 j
c12
5671 4815  594  594 rf
0 sg
5671 4815  594  594 rectstroke
1 j
gr

5790 5329 mt 
(51) s
gs 2022 656 12052 7130 rc
0 j
c12
5077 4815  594  594 rf
0 sg
5077 4815  594  594 rectstroke
1 j
gr

5196 5329 mt 
(50) s
gs 2022 656 12052 7130 rc
0 j
c12
5671 4815  594  594 rf
0 sg
5671 4815  594  594 rectstroke
1 j
gr

5790 5329 mt 
(51) s
gs 2022 656 12052 7130 rc
0 j
c12
5077 4815  594  594 rf
0 sg
5077 4815  594  594 rectstroke
1 j
gr

5196 5329 mt 
(50) s
gs 2022 656 12052 7130 rc
0 j
c12
5077 4221  594  594 rf
0 sg
5077 4221  594  594 rectstroke
1 j
gr

5196 4735 mt 
(62) s
gs 2022 656 12052 7130 rc
0 j
c12
5077 4815  594  594 rf
0 sg
5077 4815  594  594 rectstroke
1 j
gr

5196 5329 mt 
(50) s
gs 2022 656 12052 7130 rc
0 j
c12
5077 4221  594  594 rf
0 sg
5077 4221  594  594 rectstroke
1 j
gr

5196 4735 mt 
(62) s
gs 2022 656 12052 7130 rc
0 j
c12
5077 3626  594  595 rf
0 sg
5077 3626  594  595 rectstroke
1 j
gr

5196 4141 mt 
(74) s
gs 2022 656 12052 7130 rc
0 j
c12
5077 4221  594  594 rf
0 sg
5077 4221  594  594 rectstroke
1 j
gr

5196 4735 mt 
(62) s
gs 2022 656 12052 7130 rc
0 j
c12
5077 3626  594  595 rf
0 sg
5077 3626  594  595 rectstroke
1 j
gr

5196 4141 mt 
(74) s
gs 2022 656 12052 7130 rc
0 j
c12
5077 3032  594  594 rf
0 sg
5077 3032  594  594 rectstroke
1 j
gr

5196 3547 mt 
(86) s
gs 2022 656 12052 7130 rc
0 j
c12
5077 3626  594  595 rf
0 sg
5077 3626  594  595 rectstroke
1 j
gr

5196 4141 mt 
(74) s
gs 2022 656 12052 7130 rc
0 j
c12
5077 3032  594  594 rf
0 sg
5077 3032  594  594 rectstroke
1 j
gr

5196 3547 mt 
(86) s
gs 2022 656 12052 7130 rc
0 j
c12
5077 2438  594  594 rf
0 sg
5077 2438  594  594 rectstroke
1 j
gr

5196 2953 mt 
(98) s
gs 2022 656 12052 7130 rc
0 j
c12
5077 3032  594  594 rf
0 sg
5077 3032  594  594 rectstroke
1 j
gr

5196 3547 mt 
(86) s
gs 2022 656 12052 7130 rc
0 j
c12
5077 2438  594  594 rf
0 sg
5077 2438  594  594 rectstroke
1 j
gr

5196 2953 mt 
(98) s
gs 2022 656 12052 7130 rc
0 j
c12
5077 1844  594  594 rf
0 sg
5077 1844  594  594 rectstroke
1 j
gr

5196 2359 mt 
(110) s
gs 2022 656 12052 7130 rc
0 j
c8
4483 7191  594  594 rf
0 sg
4483 7191  594  594 rectstroke
1 j
gr

4602 7705 mt 
(1) s
6 w

end %%Color Dict

eplot
%%EndObject

epage
end

showpage

%%Trailer
%%EOF
